[gd_scene load_steps=4 format=2]

[ext_resource path="res://scenes/ui.tscn" type="PackedScene" id=1]
[ext_resource path="res://scenes/game.tscn" type="PackedScene" id=2]
[ext_resource path="res://scenes/game_with_hud.gd" type="Script" id=3]

[node name="GameWithHUD" type="Node2D"]
script = ExtResource( 3 )
viewport_size_override = Vector2( 512, 320 )
viewport_start_location = Vector2( 0, 64 )

[node name="UI" parent="." instance=ExtResource( 1 )]

[node name="ViewportContainer" type="ViewportContainer" parent="."]
margin_top = 64.0
margin_right = 512.0
margin_bottom = 384.0
__meta__ = {
"_edit_use_anchors_": false
}

[node name="Viewport" type="Viewport" parent="ViewportContainer"]
size = Vector2( 512, 320 )
handle_input_locally = false
render_target_update_mode = 3

[node name="Game" parent="ViewportContainer/Viewport" instance=ExtResource( 2 )]
configure_on_ready = false
