[gd_scene load_steps=3 format=2]

[ext_resource path="res://assets/tilemap/cybernoid_level2_tiles_32x32.bmp" type="Texture" id=1]

[sub_resource type="TileSet" id=1]
0/name = "cybernoid_level2_tiles_32x32.bmp 00000"
0/texture = ExtResource( 1 )
0/tex_offset = Vector2( 0, 0 )
0/modulate = Color( 1, 1, 1, 1 )
0/region = Rect2( 0, 0, 32, 32 )
0/tile_mode = 0
0/occluder_offset = Vector2( 0, 0 )
0/navigation_offset = Vector2( 0, 0 )
0/shapes = [  ]
0/z_index = 0
1/name = "cybernoid_level2_tiles_32x32.bmp 00001"
1/texture = ExtResource( 1 )
1/tex_offset = Vector2( 0, 0 )
1/modulate = Color( 1, 1, 1, 1 )
1/region = Rect2( 32, 0, 32, 32 )
1/tile_mode = 0
1/occluder_offset = Vector2( 0, 0 )
1/navigation_offset = Vector2( 0, 0 )
1/shapes = [  ]
1/z_index = 0
2/name = "cybernoid_level2_tiles_32x32.bmp 00002"
2/texture = ExtResource( 1 )
2/tex_offset = Vector2( 0, 0 )
2/modulate = Color( 1, 1, 1, 1 )
2/region = Rect2( 64, 0, 32, 32 )
2/tile_mode = 0
2/occluder_offset = Vector2( 0, 0 )
2/navigation_offset = Vector2( 0, 0 )
2/shapes = [  ]
2/z_index = 0
3/name = "cybernoid_level2_tiles_32x32.bmp 00003"
3/texture = ExtResource( 1 )
3/tex_offset = Vector2( 0, 0 )
3/modulate = Color( 1, 1, 1, 1 )
3/region = Rect2( 96, 0, 32, 32 )
3/tile_mode = 0
3/occluder_offset = Vector2( 0, 0 )
3/navigation_offset = Vector2( 0, 0 )
3/shapes = [  ]
3/z_index = 0
4/name = "cybernoid_level2_tiles_32x32.bmp 00004"
4/texture = ExtResource( 1 )
4/tex_offset = Vector2( 0, 0 )
4/modulate = Color( 1, 1, 1, 1 )
4/region = Rect2( 128, 0, 32, 32 )
4/tile_mode = 0
4/occluder_offset = Vector2( 0, 0 )
4/navigation_offset = Vector2( 0, 0 )
4/shapes = [  ]
4/z_index = 0
5/name = "cybernoid_level2_tiles_32x32.bmp 00005"
5/texture = ExtResource( 1 )
5/tex_offset = Vector2( 0, 0 )
5/modulate = Color( 1, 1, 1, 1 )
5/region = Rect2( 160, 0, 32, 32 )
5/tile_mode = 0
5/occluder_offset = Vector2( 0, 0 )
5/navigation_offset = Vector2( 0, 0 )
5/shapes = [  ]
5/z_index = 0
6/name = "cybernoid_level2_tiles_32x32.bmp 00006"
6/texture = ExtResource( 1 )
6/tex_offset = Vector2( 0, 0 )
6/modulate = Color( 1, 1, 1, 1 )
6/region = Rect2( 192, 0, 32, 32 )
6/tile_mode = 0
6/occluder_offset = Vector2( 0, 0 )
6/navigation_offset = Vector2( 0, 0 )
6/shapes = [  ]
6/z_index = 0
7/name = "cybernoid_level2_tiles_32x32.bmp 00007"
7/texture = ExtResource( 1 )
7/tex_offset = Vector2( 0, 0 )
7/modulate = Color( 1, 1, 1, 1 )
7/region = Rect2( 224, 0, 32, 32 )
7/tile_mode = 0
7/occluder_offset = Vector2( 0, 0 )
7/navigation_offset = Vector2( 0, 0 )
7/shapes = [  ]
7/z_index = 0
8/name = "cybernoid_level2_tiles_32x32.bmp 00008"
8/texture = ExtResource( 1 )
8/tex_offset = Vector2( 0, 0 )
8/modulate = Color( 1, 1, 1, 1 )
8/region = Rect2( 256, 0, 32, 32 )
8/tile_mode = 0
8/occluder_offset = Vector2( 0, 0 )
8/navigation_offset = Vector2( 0, 0 )
8/shapes = [  ]
8/z_index = 0
9/name = "cybernoid_level2_tiles_32x32.bmp 00009"
9/texture = ExtResource( 1 )
9/tex_offset = Vector2( 0, 0 )
9/modulate = Color( 1, 1, 1, 1 )
9/region = Rect2( 288, 0, 32, 32 )
9/tile_mode = 0
9/occluder_offset = Vector2( 0, 0 )
9/navigation_offset = Vector2( 0, 0 )
9/shapes = [  ]
9/z_index = 0
10/name = "cybernoid_level2_tiles_32x32.bmp 00010"
10/texture = ExtResource( 1 )
10/tex_offset = Vector2( 0, 0 )
10/modulate = Color( 1, 1, 1, 1 )
10/region = Rect2( 320, 0, 32, 32 )
10/tile_mode = 0
10/occluder_offset = Vector2( 0, 0 )
10/navigation_offset = Vector2( 0, 0 )
10/shapes = [  ]
10/z_index = 0
11/name = "cybernoid_level2_tiles_32x32.bmp 00011"
11/texture = ExtResource( 1 )
11/tex_offset = Vector2( 0, 0 )
11/modulate = Color( 1, 1, 1, 1 )
11/region = Rect2( 352, 0, 32, 32 )
11/tile_mode = 0
11/occluder_offset = Vector2( 0, 0 )
11/navigation_offset = Vector2( 0, 0 )
11/shapes = [  ]
11/z_index = 0
12/name = "cybernoid_level2_tiles_32x32.bmp 00012"
12/texture = ExtResource( 1 )
12/tex_offset = Vector2( 0, 0 )
12/modulate = Color( 1, 1, 1, 1 )
12/region = Rect2( 384, 0, 32, 32 )
12/tile_mode = 0
12/occluder_offset = Vector2( 0, 0 )
12/navigation_offset = Vector2( 0, 0 )
12/shapes = [  ]
12/z_index = 0
13/name = "cybernoid_level2_tiles_32x32.bmp 00013"
13/texture = ExtResource( 1 )
13/tex_offset = Vector2( 0, 0 )
13/modulate = Color( 1, 1, 1, 1 )
13/region = Rect2( 416, 0, 32, 32 )
13/tile_mode = 0
13/occluder_offset = Vector2( 0, 0 )
13/navigation_offset = Vector2( 0, 0 )
13/shapes = [  ]
13/z_index = 0
14/name = "cybernoid_level2_tiles_32x32.bmp 00014"
14/texture = ExtResource( 1 )
14/tex_offset = Vector2( 0, 0 )
14/modulate = Color( 1, 1, 1, 1 )
14/region = Rect2( 448, 0, 32, 32 )
14/tile_mode = 0
14/occluder_offset = Vector2( 0, 0 )
14/navigation_offset = Vector2( 0, 0 )
14/shapes = [  ]
14/z_index = 0
15/name = "cybernoid_level2_tiles_32x32.bmp 00015"
15/texture = ExtResource( 1 )
15/tex_offset = Vector2( 0, 0 )
15/modulate = Color( 1, 1, 1, 1 )
15/region = Rect2( 480, 0, 32, 32 )
15/tile_mode = 0
15/occluder_offset = Vector2( 0, 0 )
15/navigation_offset = Vector2( 0, 0 )
15/shapes = [  ]
15/z_index = 0
16/name = "cybernoid_level2_tiles_32x32.bmp 00016"
16/texture = ExtResource( 1 )
16/tex_offset = Vector2( 0, 0 )
16/modulate = Color( 1, 1, 1, 1 )
16/region = Rect2( 0, 32, 32, 32 )
16/tile_mode = 0
16/occluder_offset = Vector2( 0, 0 )
16/navigation_offset = Vector2( 0, 0 )
16/shapes = [  ]
16/z_index = 0
17/name = "cybernoid_level2_tiles_32x32.bmp 00017"
17/texture = ExtResource( 1 )
17/tex_offset = Vector2( 0, 0 )
17/modulate = Color( 1, 1, 1, 1 )
17/region = Rect2( 32, 32, 32, 32 )
17/tile_mode = 0
17/occluder_offset = Vector2( 0, 0 )
17/navigation_offset = Vector2( 0, 0 )
17/shapes = [  ]
17/z_index = 0
18/name = "cybernoid_level2_tiles_32x32.bmp 00018"
18/texture = ExtResource( 1 )
18/tex_offset = Vector2( 0, 0 )
18/modulate = Color( 1, 1, 1, 1 )
18/region = Rect2( 64, 32, 32, 32 )
18/tile_mode = 0
18/occluder_offset = Vector2( 0, 0 )
18/navigation_offset = Vector2( 0, 0 )
18/shapes = [  ]
18/z_index = 0
19/name = "cybernoid_level2_tiles_32x32.bmp 00019"
19/texture = ExtResource( 1 )
19/tex_offset = Vector2( 0, 0 )
19/modulate = Color( 1, 1, 1, 1 )
19/region = Rect2( 96, 32, 32, 32 )
19/tile_mode = 0
19/occluder_offset = Vector2( 0, 0 )
19/navigation_offset = Vector2( 0, 0 )
19/shapes = [  ]
19/z_index = 0
20/name = "cybernoid_level2_tiles_32x32.bmp 00020"
20/texture = ExtResource( 1 )
20/tex_offset = Vector2( 0, 0 )
20/modulate = Color( 1, 1, 1, 1 )
20/region = Rect2( 128, 32, 32, 32 )
20/tile_mode = 0
20/occluder_offset = Vector2( 0, 0 )
20/navigation_offset = Vector2( 0, 0 )
20/shapes = [  ]
20/z_index = 0
21/name = "cybernoid_level2_tiles_32x32.bmp 00021"
21/texture = ExtResource( 1 )
21/tex_offset = Vector2( 0, 0 )
21/modulate = Color( 1, 1, 1, 1 )
21/region = Rect2( 160, 32, 32, 32 )
21/tile_mode = 0
21/occluder_offset = Vector2( 0, 0 )
21/navigation_offset = Vector2( 0, 0 )
21/shapes = [  ]
21/z_index = 0
22/name = "cybernoid_level2_tiles_32x32.bmp 00022"
22/texture = ExtResource( 1 )
22/tex_offset = Vector2( 0, 0 )
22/modulate = Color( 1, 1, 1, 1 )
22/region = Rect2( 192, 32, 32, 32 )
22/tile_mode = 0
22/occluder_offset = Vector2( 0, 0 )
22/navigation_offset = Vector2( 0, 0 )
22/shapes = [  ]
22/z_index = 0
23/name = "cybernoid_level2_tiles_32x32.bmp 00023"
23/texture = ExtResource( 1 )
23/tex_offset = Vector2( 0, 0 )
23/modulate = Color( 1, 1, 1, 1 )
23/region = Rect2( 224, 32, 32, 32 )
23/tile_mode = 0
23/occluder_offset = Vector2( 0, 0 )
23/navigation_offset = Vector2( 0, 0 )
23/shapes = [  ]
23/z_index = 0
24/name = "cybernoid_level2_tiles_32x32.bmp 00024"
24/texture = ExtResource( 1 )
24/tex_offset = Vector2( 0, 0 )
24/modulate = Color( 1, 1, 1, 1 )
24/region = Rect2( 256, 32, 32, 32 )
24/tile_mode = 0
24/occluder_offset = Vector2( 0, 0 )
24/navigation_offset = Vector2( 0, 0 )
24/shapes = [  ]
24/z_index = 0
25/name = "cybernoid_level2_tiles_32x32.bmp 00025"
25/texture = ExtResource( 1 )
25/tex_offset = Vector2( 0, 0 )
25/modulate = Color( 1, 1, 1, 1 )
25/region = Rect2( 288, 32, 32, 32 )
25/tile_mode = 0
25/occluder_offset = Vector2( 0, 0 )
25/navigation_offset = Vector2( 0, 0 )
25/shapes = [  ]
25/z_index = 0
26/name = "cybernoid_level2_tiles_32x32.bmp 00026"
26/texture = ExtResource( 1 )
26/tex_offset = Vector2( 0, 0 )
26/modulate = Color( 1, 1, 1, 1 )
26/region = Rect2( 320, 32, 32, 32 )
26/tile_mode = 0
26/occluder_offset = Vector2( 0, 0 )
26/navigation_offset = Vector2( 0, 0 )
26/shapes = [  ]
26/z_index = 0
27/name = "cybernoid_level2_tiles_32x32.bmp 00027"
27/texture = ExtResource( 1 )
27/tex_offset = Vector2( 0, 0 )
27/modulate = Color( 1, 1, 1, 1 )
27/region = Rect2( 352, 32, 32, 32 )
27/tile_mode = 0
27/occluder_offset = Vector2( 0, 0 )
27/navigation_offset = Vector2( 0, 0 )
27/shapes = [  ]
27/z_index = 0
28/name = "cybernoid_level2_tiles_32x32.bmp 00028"
28/texture = ExtResource( 1 )
28/tex_offset = Vector2( 0, 0 )
28/modulate = Color( 1, 1, 1, 1 )
28/region = Rect2( 384, 32, 32, 32 )
28/tile_mode = 0
28/occluder_offset = Vector2( 0, 0 )
28/navigation_offset = Vector2( 0, 0 )
28/shapes = [  ]
28/z_index = 0
29/name = "cybernoid_level2_tiles_32x32.bmp 00029"
29/texture = ExtResource( 1 )
29/tex_offset = Vector2( 0, 0 )
29/modulate = Color( 1, 1, 1, 1 )
29/region = Rect2( 416, 32, 32, 32 )
29/tile_mode = 0
29/occluder_offset = Vector2( 0, 0 )
29/navigation_offset = Vector2( 0, 0 )
29/shapes = [  ]
29/z_index = 0
30/name = "cybernoid_level2_tiles_32x32.bmp 00030"
30/texture = ExtResource( 1 )
30/tex_offset = Vector2( 0, 0 )
30/modulate = Color( 1, 1, 1, 1 )
30/region = Rect2( 448, 32, 32, 32 )
30/tile_mode = 0
30/occluder_offset = Vector2( 0, 0 )
30/navigation_offset = Vector2( 0, 0 )
30/shapes = [  ]
30/z_index = 0
31/name = "cybernoid_level2_tiles_32x32.bmp 00031"
31/texture = ExtResource( 1 )
31/tex_offset = Vector2( 0, 0 )
31/modulate = Color( 1, 1, 1, 1 )
31/region = Rect2( 480, 32, 32, 32 )
31/tile_mode = 0
31/occluder_offset = Vector2( 0, 0 )
31/navigation_offset = Vector2( 0, 0 )
31/shapes = [  ]
31/z_index = 0
32/name = "cybernoid_level2_tiles_32x32.bmp 00032"
32/texture = ExtResource( 1 )
32/tex_offset = Vector2( 0, 0 )
32/modulate = Color( 1, 1, 1, 1 )
32/region = Rect2( 0, 64, 32, 32 )
32/tile_mode = 0
32/occluder_offset = Vector2( 0, 0 )
32/navigation_offset = Vector2( 0, 0 )
32/shapes = [  ]
32/z_index = 0
33/name = "cybernoid_level2_tiles_32x32.bmp 00033"
33/texture = ExtResource( 1 )
33/tex_offset = Vector2( 0, 0 )
33/modulate = Color( 1, 1, 1, 1 )
33/region = Rect2( 32, 64, 32, 32 )
33/tile_mode = 0
33/occluder_offset = Vector2( 0, 0 )
33/navigation_offset = Vector2( 0, 0 )
33/shapes = [  ]
33/z_index = 0
34/name = "cybernoid_level2_tiles_32x32.bmp 00034"
34/texture = ExtResource( 1 )
34/tex_offset = Vector2( 0, 0 )
34/modulate = Color( 1, 1, 1, 1 )
34/region = Rect2( 64, 64, 32, 32 )
34/tile_mode = 0
34/occluder_offset = Vector2( 0, 0 )
34/navigation_offset = Vector2( 0, 0 )
34/shapes = [  ]
34/z_index = 0
35/name = "cybernoid_level2_tiles_32x32.bmp 00035"
35/texture = ExtResource( 1 )
35/tex_offset = Vector2( 0, 0 )
35/modulate = Color( 1, 1, 1, 1 )
35/region = Rect2( 96, 64, 32, 32 )
35/tile_mode = 0
35/occluder_offset = Vector2( 0, 0 )
35/navigation_offset = Vector2( 0, 0 )
35/shapes = [  ]
35/z_index = 0
36/name = "cybernoid_level2_tiles_32x32.bmp 00036"
36/texture = ExtResource( 1 )
36/tex_offset = Vector2( 0, 0 )
36/modulate = Color( 1, 1, 1, 1 )
36/region = Rect2( 128, 64, 32, 32 )
36/tile_mode = 0
36/occluder_offset = Vector2( 0, 0 )
36/navigation_offset = Vector2( 0, 0 )
36/shapes = [  ]
36/z_index = 0
37/name = "cybernoid_level2_tiles_32x32.bmp 00037"
37/texture = ExtResource( 1 )
37/tex_offset = Vector2( 0, 0 )
37/modulate = Color( 1, 1, 1, 1 )
37/region = Rect2( 160, 64, 32, 32 )
37/tile_mode = 0
37/occluder_offset = Vector2( 0, 0 )
37/navigation_offset = Vector2( 0, 0 )
37/shapes = [  ]
37/z_index = 0
38/name = "cybernoid_level2_tiles_32x32.bmp 00038"
38/texture = ExtResource( 1 )
38/tex_offset = Vector2( 0, 0 )
38/modulate = Color( 1, 1, 1, 1 )
38/region = Rect2( 192, 64, 32, 32 )
38/tile_mode = 0
38/occluder_offset = Vector2( 0, 0 )
38/navigation_offset = Vector2( 0, 0 )
38/shapes = [  ]
38/z_index = 0
39/name = "cybernoid_level2_tiles_32x32.bmp 00039"
39/texture = ExtResource( 1 )
39/tex_offset = Vector2( 0, 0 )
39/modulate = Color( 1, 1, 1, 1 )
39/region = Rect2( 224, 64, 32, 32 )
39/tile_mode = 0
39/occluder_offset = Vector2( 0, 0 )
39/navigation_offset = Vector2( 0, 0 )
39/shapes = [  ]
39/z_index = 0
40/name = "cybernoid_level2_tiles_32x32.bmp 00040"
40/texture = ExtResource( 1 )
40/tex_offset = Vector2( 0, 0 )
40/modulate = Color( 1, 1, 1, 1 )
40/region = Rect2( 256, 64, 32, 32 )
40/tile_mode = 0
40/occluder_offset = Vector2( 0, 0 )
40/navigation_offset = Vector2( 0, 0 )
40/shapes = [  ]
40/z_index = 0
41/name = "cybernoid_level2_tiles_32x32.bmp 00041"
41/texture = ExtResource( 1 )
41/tex_offset = Vector2( 0, 0 )
41/modulate = Color( 1, 1, 1, 1 )
41/region = Rect2( 288, 64, 32, 32 )
41/tile_mode = 0
41/occluder_offset = Vector2( 0, 0 )
41/navigation_offset = Vector2( 0, 0 )
41/shapes = [  ]
41/z_index = 0
42/name = "cybernoid_level2_tiles_32x32.bmp 00042"
42/texture = ExtResource( 1 )
42/tex_offset = Vector2( 0, 0 )
42/modulate = Color( 1, 1, 1, 1 )
42/region = Rect2( 320, 64, 32, 32 )
42/tile_mode = 0
42/occluder_offset = Vector2( 0, 0 )
42/navigation_offset = Vector2( 0, 0 )
42/shapes = [  ]
42/z_index = 0
43/name = "cybernoid_level2_tiles_32x32.bmp 00043"
43/texture = ExtResource( 1 )
43/tex_offset = Vector2( 0, 0 )
43/modulate = Color( 1, 1, 1, 1 )
43/region = Rect2( 352, 64, 32, 32 )
43/tile_mode = 0
43/occluder_offset = Vector2( 0, 0 )
43/navigation_offset = Vector2( 0, 0 )
43/shapes = [  ]
43/z_index = 0
44/name = "cybernoid_level2_tiles_32x32.bmp 00044"
44/texture = ExtResource( 1 )
44/tex_offset = Vector2( 0, 0 )
44/modulate = Color( 1, 1, 1, 1 )
44/region = Rect2( 384, 64, 32, 32 )
44/tile_mode = 0
44/occluder_offset = Vector2( 0, 0 )
44/navigation_offset = Vector2( 0, 0 )
44/shapes = [  ]
44/z_index = 0
45/name = "cybernoid_level2_tiles_32x32.bmp 00045"
45/texture = ExtResource( 1 )
45/tex_offset = Vector2( 0, 0 )
45/modulate = Color( 1, 1, 1, 1 )
45/region = Rect2( 416, 64, 32, 32 )
45/tile_mode = 0
45/occluder_offset = Vector2( 0, 0 )
45/navigation_offset = Vector2( 0, 0 )
45/shapes = [  ]
45/z_index = 0
46/name = "cybernoid_level2_tiles_32x32.bmp 00046"
46/texture = ExtResource( 1 )
46/tex_offset = Vector2( 0, 0 )
46/modulate = Color( 1, 1, 1, 1 )
46/region = Rect2( 448, 64, 32, 32 )
46/tile_mode = 0
46/occluder_offset = Vector2( 0, 0 )
46/navigation_offset = Vector2( 0, 0 )
46/shapes = [  ]
46/z_index = 0
47/name = "cybernoid_level2_tiles_32x32.bmp 00047"
47/texture = ExtResource( 1 )
47/tex_offset = Vector2( 0, 0 )
47/modulate = Color( 1, 1, 1, 1 )
47/region = Rect2( 480, 64, 32, 32 )
47/tile_mode = 0
47/occluder_offset = Vector2( 0, 0 )
47/navigation_offset = Vector2( 0, 0 )
47/shapes = [  ]
47/z_index = 0
48/name = "cybernoid_level2_tiles_32x32.bmp 00048"
48/texture = ExtResource( 1 )
48/tex_offset = Vector2( 0, 0 )
48/modulate = Color( 1, 1, 1, 1 )
48/region = Rect2( 0, 96, 32, 32 )
48/tile_mode = 0
48/occluder_offset = Vector2( 0, 0 )
48/navigation_offset = Vector2( 0, 0 )
48/shapes = [  ]
48/z_index = 0
49/name = "cybernoid_level2_tiles_32x32.bmp 00049"
49/texture = ExtResource( 1 )
49/tex_offset = Vector2( 0, 0 )
49/modulate = Color( 1, 1, 1, 1 )
49/region = Rect2( 32, 96, 32, 32 )
49/tile_mode = 0
49/occluder_offset = Vector2( 0, 0 )
49/navigation_offset = Vector2( 0, 0 )
49/shapes = [  ]
49/z_index = 0
50/name = "cybernoid_level2_tiles_32x32.bmp 00050"
50/texture = ExtResource( 1 )
50/tex_offset = Vector2( 0, 0 )
50/modulate = Color( 1, 1, 1, 1 )
50/region = Rect2( 64, 96, 32, 32 )
50/tile_mode = 0
50/occluder_offset = Vector2( 0, 0 )
50/navigation_offset = Vector2( 0, 0 )
50/shapes = [  ]
50/z_index = 0
51/name = "cybernoid_level2_tiles_32x32.bmp 00051"
51/texture = ExtResource( 1 )
51/tex_offset = Vector2( 0, 0 )
51/modulate = Color( 1, 1, 1, 1 )
51/region = Rect2( 96, 96, 32, 32 )
51/tile_mode = 0
51/occluder_offset = Vector2( 0, 0 )
51/navigation_offset = Vector2( 0, 0 )
51/shapes = [  ]
51/z_index = 0
52/name = "cybernoid_level2_tiles_32x32.bmp 00052"
52/texture = ExtResource( 1 )
52/tex_offset = Vector2( 0, 0 )
52/modulate = Color( 1, 1, 1, 1 )
52/region = Rect2( 128, 96, 32, 32 )
52/tile_mode = 0
52/occluder_offset = Vector2( 0, 0 )
52/navigation_offset = Vector2( 0, 0 )
52/shapes = [  ]
52/z_index = 0
53/name = "cybernoid_level2_tiles_32x32.bmp 00053"
53/texture = ExtResource( 1 )
53/tex_offset = Vector2( 0, 0 )
53/modulate = Color( 1, 1, 1, 1 )
53/region = Rect2( 160, 96, 32, 32 )
53/tile_mode = 0
53/occluder_offset = Vector2( 0, 0 )
53/navigation_offset = Vector2( 0, 0 )
53/shapes = [  ]
53/z_index = 0
54/name = "cybernoid_level2_tiles_32x32.bmp 00054"
54/texture = ExtResource( 1 )
54/tex_offset = Vector2( 0, 0 )
54/modulate = Color( 1, 1, 1, 1 )
54/region = Rect2( 192, 96, 32, 32 )
54/tile_mode = 0
54/occluder_offset = Vector2( 0, 0 )
54/navigation_offset = Vector2( 0, 0 )
54/shapes = [  ]
54/z_index = 0
55/name = "cybernoid_level2_tiles_32x32.bmp 00055"
55/texture = ExtResource( 1 )
55/tex_offset = Vector2( 0, 0 )
55/modulate = Color( 1, 1, 1, 1 )
55/region = Rect2( 224, 96, 32, 32 )
55/tile_mode = 0
55/occluder_offset = Vector2( 0, 0 )
55/navigation_offset = Vector2( 0, 0 )
55/shapes = [  ]
55/z_index = 0
56/name = "cybernoid_level2_tiles_32x32.bmp 00056"
56/texture = ExtResource( 1 )
56/tex_offset = Vector2( 0, 0 )
56/modulate = Color( 1, 1, 1, 1 )
56/region = Rect2( 256, 96, 32, 32 )
56/tile_mode = 0
56/occluder_offset = Vector2( 0, 0 )
56/navigation_offset = Vector2( 0, 0 )
56/shapes = [  ]
56/z_index = 0
57/name = "cybernoid_level2_tiles_32x32.bmp 00057"
57/texture = ExtResource( 1 )
57/tex_offset = Vector2( 0, 0 )
57/modulate = Color( 1, 1, 1, 1 )
57/region = Rect2( 288, 96, 32, 32 )
57/tile_mode = 0
57/occluder_offset = Vector2( 0, 0 )
57/navigation_offset = Vector2( 0, 0 )
57/shapes = [  ]
57/z_index = 0
58/name = "cybernoid_level2_tiles_32x32.bmp 00058"
58/texture = ExtResource( 1 )
58/tex_offset = Vector2( 0, 0 )
58/modulate = Color( 1, 1, 1, 1 )
58/region = Rect2( 320, 96, 32, 32 )
58/tile_mode = 0
58/occluder_offset = Vector2( 0, 0 )
58/navigation_offset = Vector2( 0, 0 )
58/shapes = [  ]
58/z_index = 0
59/name = "cybernoid_level2_tiles_32x32.bmp 00059"
59/texture = ExtResource( 1 )
59/tex_offset = Vector2( 0, 0 )
59/modulate = Color( 1, 1, 1, 1 )
59/region = Rect2( 352, 96, 32, 32 )
59/tile_mode = 0
59/occluder_offset = Vector2( 0, 0 )
59/navigation_offset = Vector2( 0, 0 )
59/shapes = [  ]
59/z_index = 0
60/name = "cybernoid_level2_tiles_32x32.bmp 00060"
60/texture = ExtResource( 1 )
60/tex_offset = Vector2( 0, 0 )
60/modulate = Color( 1, 1, 1, 1 )
60/region = Rect2( 384, 96, 32, 32 )
60/tile_mode = 0
60/occluder_offset = Vector2( 0, 0 )
60/navigation_offset = Vector2( 0, 0 )
60/shapes = [  ]
60/z_index = 0
61/name = "cybernoid_level2_tiles_32x32.bmp 00061"
61/texture = ExtResource( 1 )
61/tex_offset = Vector2( 0, 0 )
61/modulate = Color( 1, 1, 1, 1 )
61/region = Rect2( 416, 96, 32, 32 )
61/tile_mode = 0
61/occluder_offset = Vector2( 0, 0 )
61/navigation_offset = Vector2( 0, 0 )
61/shapes = [  ]
61/z_index = 0
62/name = "cybernoid_level2_tiles_32x32.bmp 00062"
62/texture = ExtResource( 1 )
62/tex_offset = Vector2( 0, 0 )
62/modulate = Color( 1, 1, 1, 1 )
62/region = Rect2( 448, 96, 32, 32 )
62/tile_mode = 0
62/occluder_offset = Vector2( 0, 0 )
62/navigation_offset = Vector2( 0, 0 )
62/shapes = [  ]
62/z_index = 0
63/name = "cybernoid_level2_tiles_32x32.bmp 00063"
63/texture = ExtResource( 1 )
63/tex_offset = Vector2( 0, 0 )
63/modulate = Color( 1, 1, 1, 1 )
63/region = Rect2( 480, 96, 32, 32 )
63/tile_mode = 0
63/occluder_offset = Vector2( 0, 0 )
63/navigation_offset = Vector2( 0, 0 )
63/shapes = [  ]
63/z_index = 0
64/name = "cybernoid_level2_tiles_32x32.bmp 00064"
64/texture = ExtResource( 1 )
64/tex_offset = Vector2( 0, 0 )
64/modulate = Color( 1, 1, 1, 1 )
64/region = Rect2( 0, 128, 32, 32 )
64/tile_mode = 0
64/occluder_offset = Vector2( 0, 0 )
64/navigation_offset = Vector2( 0, 0 )
64/shapes = [  ]
64/z_index = 0
65/name = "cybernoid_level2_tiles_32x32.bmp 00065"
65/texture = ExtResource( 1 )
65/tex_offset = Vector2( 0, 0 )
65/modulate = Color( 1, 1, 1, 1 )
65/region = Rect2( 32, 128, 32, 32 )
65/tile_mode = 0
65/occluder_offset = Vector2( 0, 0 )
65/navigation_offset = Vector2( 0, 0 )
65/shapes = [  ]
65/z_index = 0
66/name = "cybernoid_level2_tiles_32x32.bmp 00066"
66/texture = ExtResource( 1 )
66/tex_offset = Vector2( 0, 0 )
66/modulate = Color( 1, 1, 1, 1 )
66/region = Rect2( 64, 128, 32, 32 )
66/tile_mode = 0
66/occluder_offset = Vector2( 0, 0 )
66/navigation_offset = Vector2( 0, 0 )
66/shapes = [  ]
66/z_index = 0
67/name = "cybernoid_level2_tiles_32x32.bmp 00067"
67/texture = ExtResource( 1 )
67/tex_offset = Vector2( 0, 0 )
67/modulate = Color( 1, 1, 1, 1 )
67/region = Rect2( 96, 128, 32, 32 )
67/tile_mode = 0
67/occluder_offset = Vector2( 0, 0 )
67/navigation_offset = Vector2( 0, 0 )
67/shapes = [  ]
67/z_index = 0
68/name = "cybernoid_level2_tiles_32x32.bmp 00068"
68/texture = ExtResource( 1 )
68/tex_offset = Vector2( 0, 0 )
68/modulate = Color( 1, 1, 1, 1 )
68/region = Rect2( 128, 128, 32, 32 )
68/tile_mode = 0
68/occluder_offset = Vector2( 0, 0 )
68/navigation_offset = Vector2( 0, 0 )
68/shapes = [  ]
68/z_index = 0
69/name = "cybernoid_level2_tiles_32x32.bmp 00069"
69/texture = ExtResource( 1 )
69/tex_offset = Vector2( 0, 0 )
69/modulate = Color( 1, 1, 1, 1 )
69/region = Rect2( 160, 128, 32, 32 )
69/tile_mode = 0
69/occluder_offset = Vector2( 0, 0 )
69/navigation_offset = Vector2( 0, 0 )
69/shapes = [  ]
69/z_index = 0
70/name = "cybernoid_level2_tiles_32x32.bmp 00070"
70/texture = ExtResource( 1 )
70/tex_offset = Vector2( 0, 0 )
70/modulate = Color( 1, 1, 1, 1 )
70/region = Rect2( 192, 128, 32, 32 )
70/tile_mode = 0
70/occluder_offset = Vector2( 0, 0 )
70/navigation_offset = Vector2( 0, 0 )
70/shapes = [  ]
70/z_index = 0
71/name = "cybernoid_level2_tiles_32x32.bmp 00071"
71/texture = ExtResource( 1 )
71/tex_offset = Vector2( 0, 0 )
71/modulate = Color( 1, 1, 1, 1 )
71/region = Rect2( 224, 128, 32, 32 )
71/tile_mode = 0
71/occluder_offset = Vector2( 0, 0 )
71/navigation_offset = Vector2( 0, 0 )
71/shapes = [  ]
71/z_index = 0
72/name = "cybernoid_level2_tiles_32x32.bmp 00072"
72/texture = ExtResource( 1 )
72/tex_offset = Vector2( 0, 0 )
72/modulate = Color( 1, 1, 1, 1 )
72/region = Rect2( 256, 128, 32, 32 )
72/tile_mode = 0
72/occluder_offset = Vector2( 0, 0 )
72/navigation_offset = Vector2( 0, 0 )
72/shapes = [  ]
72/z_index = 0
73/name = "cybernoid_level2_tiles_32x32.bmp 00073"
73/texture = ExtResource( 1 )
73/tex_offset = Vector2( 0, 0 )
73/modulate = Color( 1, 1, 1, 1 )
73/region = Rect2( 288, 128, 32, 32 )
73/tile_mode = 0
73/occluder_offset = Vector2( 0, 0 )
73/navigation_offset = Vector2( 0, 0 )
73/shapes = [  ]
73/z_index = 0
74/name = "cybernoid_level2_tiles_32x32.bmp 00074"
74/texture = ExtResource( 1 )
74/tex_offset = Vector2( 0, 0 )
74/modulate = Color( 1, 1, 1, 1 )
74/region = Rect2( 320, 128, 32, 32 )
74/tile_mode = 0
74/occluder_offset = Vector2( 0, 0 )
74/navigation_offset = Vector2( 0, 0 )
74/shapes = [  ]
74/z_index = 0
75/name = "cybernoid_level2_tiles_32x32.bmp 00075"
75/texture = ExtResource( 1 )
75/tex_offset = Vector2( 0, 0 )
75/modulate = Color( 1, 1, 1, 1 )
75/region = Rect2( 352, 128, 32, 32 )
75/tile_mode = 0
75/occluder_offset = Vector2( 0, 0 )
75/navigation_offset = Vector2( 0, 0 )
75/shapes = [  ]
75/z_index = 0
76/name = "cybernoid_level2_tiles_32x32.bmp 00076"
76/texture = ExtResource( 1 )
76/tex_offset = Vector2( 0, 0 )
76/modulate = Color( 1, 1, 1, 1 )
76/region = Rect2( 384, 128, 32, 32 )
76/tile_mode = 0
76/occluder_offset = Vector2( 0, 0 )
76/navigation_offset = Vector2( 0, 0 )
76/shapes = [  ]
76/z_index = 0
77/name = "cybernoid_level2_tiles_32x32.bmp 00077"
77/texture = ExtResource( 1 )
77/tex_offset = Vector2( 0, 0 )
77/modulate = Color( 1, 1, 1, 1 )
77/region = Rect2( 416, 128, 32, 32 )
77/tile_mode = 0
77/occluder_offset = Vector2( 0, 0 )
77/navigation_offset = Vector2( 0, 0 )
77/shapes = [  ]
77/z_index = 0
78/name = "cybernoid_level2_tiles_32x32.bmp 00078"
78/texture = ExtResource( 1 )
78/tex_offset = Vector2( 0, 0 )
78/modulate = Color( 1, 1, 1, 1 )
78/region = Rect2( 448, 128, 32, 32 )
78/tile_mode = 0
78/occluder_offset = Vector2( 0, 0 )
78/navigation_offset = Vector2( 0, 0 )
78/shapes = [  ]
78/z_index = 0
79/name = "cybernoid_level2_tiles_32x32.bmp 00079"
79/texture = ExtResource( 1 )
79/tex_offset = Vector2( 0, 0 )
79/modulate = Color( 1, 1, 1, 1 )
79/region = Rect2( 480, 128, 32, 32 )
79/tile_mode = 0
79/occluder_offset = Vector2( 0, 0 )
79/navigation_offset = Vector2( 0, 0 )
79/shapes = [  ]
79/z_index = 0
80/name = "cybernoid_level2_tiles_32x32.bmp 00080"
80/texture = ExtResource( 1 )
80/tex_offset = Vector2( 0, 0 )
80/modulate = Color( 1, 1, 1, 1 )
80/region = Rect2( 0, 160, 32, 32 )
80/tile_mode = 0
80/occluder_offset = Vector2( 0, 0 )
80/navigation_offset = Vector2( 0, 0 )
80/shapes = [  ]
80/z_index = 0
81/name = "cybernoid_level2_tiles_32x32.bmp 00081"
81/texture = ExtResource( 1 )
81/tex_offset = Vector2( 0, 0 )
81/modulate = Color( 1, 1, 1, 1 )
81/region = Rect2( 32, 160, 32, 32 )
81/tile_mode = 0
81/occluder_offset = Vector2( 0, 0 )
81/navigation_offset = Vector2( 0, 0 )
81/shapes = [  ]
81/z_index = 0
82/name = "cybernoid_level2_tiles_32x32.bmp 00082"
82/texture = ExtResource( 1 )
82/tex_offset = Vector2( 0, 0 )
82/modulate = Color( 1, 1, 1, 1 )
82/region = Rect2( 64, 160, 32, 32 )
82/tile_mode = 0
82/occluder_offset = Vector2( 0, 0 )
82/navigation_offset = Vector2( 0, 0 )
82/shapes = [  ]
82/z_index = 0
83/name = "cybernoid_level2_tiles_32x32.bmp 00083"
83/texture = ExtResource( 1 )
83/tex_offset = Vector2( 0, 0 )
83/modulate = Color( 1, 1, 1, 1 )
83/region = Rect2( 96, 160, 32, 32 )
83/tile_mode = 0
83/occluder_offset = Vector2( 0, 0 )
83/navigation_offset = Vector2( 0, 0 )
83/shapes = [  ]
83/z_index = 0
84/name = "cybernoid_level2_tiles_32x32.bmp 00084"
84/texture = ExtResource( 1 )
84/tex_offset = Vector2( 0, 0 )
84/modulate = Color( 1, 1, 1, 1 )
84/region = Rect2( 128, 160, 32, 32 )
84/tile_mode = 0
84/occluder_offset = Vector2( 0, 0 )
84/navigation_offset = Vector2( 0, 0 )
84/shapes = [  ]
84/z_index = 0
85/name = "cybernoid_level2_tiles_32x32.bmp 00085"
85/texture = ExtResource( 1 )
85/tex_offset = Vector2( 0, 0 )
85/modulate = Color( 1, 1, 1, 1 )
85/region = Rect2( 160, 160, 32, 32 )
85/tile_mode = 0
85/occluder_offset = Vector2( 0, 0 )
85/navigation_offset = Vector2( 0, 0 )
85/shapes = [  ]
85/z_index = 0
86/name = "cybernoid_level2_tiles_32x32.bmp 00086"
86/texture = ExtResource( 1 )
86/tex_offset = Vector2( 0, 0 )
86/modulate = Color( 1, 1, 1, 1 )
86/region = Rect2( 192, 160, 32, 32 )
86/tile_mode = 0
86/occluder_offset = Vector2( 0, 0 )
86/navigation_offset = Vector2( 0, 0 )
86/shapes = [  ]
86/z_index = 0
87/name = "cybernoid_level2_tiles_32x32.bmp 00087"
87/texture = ExtResource( 1 )
87/tex_offset = Vector2( 0, 0 )
87/modulate = Color( 1, 1, 1, 1 )
87/region = Rect2( 224, 160, 32, 32 )
87/tile_mode = 0
87/occluder_offset = Vector2( 0, 0 )
87/navigation_offset = Vector2( 0, 0 )
87/shapes = [  ]
87/z_index = 0
88/name = "cybernoid_level2_tiles_32x32.bmp 00088"
88/texture = ExtResource( 1 )
88/tex_offset = Vector2( 0, 0 )
88/modulate = Color( 1, 1, 1, 1 )
88/region = Rect2( 256, 160, 32, 32 )
88/tile_mode = 0
88/occluder_offset = Vector2( 0, 0 )
88/navigation_offset = Vector2( 0, 0 )
88/shapes = [  ]
88/z_index = 0
89/name = "cybernoid_level2_tiles_32x32.bmp 00089"
89/texture = ExtResource( 1 )
89/tex_offset = Vector2( 0, 0 )
89/modulate = Color( 1, 1, 1, 1 )
89/region = Rect2( 288, 160, 32, 32 )
89/tile_mode = 0
89/occluder_offset = Vector2( 0, 0 )
89/navigation_offset = Vector2( 0, 0 )
89/shapes = [  ]
89/z_index = 0
90/name = "cybernoid_level2_tiles_32x32.bmp 00090"
90/texture = ExtResource( 1 )
90/tex_offset = Vector2( 0, 0 )
90/modulate = Color( 1, 1, 1, 1 )
90/region = Rect2( 320, 160, 32, 32 )
90/tile_mode = 0
90/occluder_offset = Vector2( 0, 0 )
90/navigation_offset = Vector2( 0, 0 )
90/shapes = [  ]
90/z_index = 0
91/name = "cybernoid_level2_tiles_32x32.bmp 00091"
91/texture = ExtResource( 1 )
91/tex_offset = Vector2( 0, 0 )
91/modulate = Color( 1, 1, 1, 1 )
91/region = Rect2( 352, 160, 32, 32 )
91/tile_mode = 0
91/occluder_offset = Vector2( 0, 0 )
91/navigation_offset = Vector2( 0, 0 )
91/shapes = [  ]
91/z_index = 0
92/name = "cybernoid_level2_tiles_32x32.bmp 00092"
92/texture = ExtResource( 1 )
92/tex_offset = Vector2( 0, 0 )
92/modulate = Color( 1, 1, 1, 1 )
92/region = Rect2( 384, 160, 32, 32 )
92/tile_mode = 0
92/occluder_offset = Vector2( 0, 0 )
92/navigation_offset = Vector2( 0, 0 )
92/shapes = [  ]
92/z_index = 0
93/name = "cybernoid_level2_tiles_32x32.bmp 00093"
93/texture = ExtResource( 1 )
93/tex_offset = Vector2( 0, 0 )
93/modulate = Color( 1, 1, 1, 1 )
93/region = Rect2( 416, 160, 32, 32 )
93/tile_mode = 0
93/occluder_offset = Vector2( 0, 0 )
93/navigation_offset = Vector2( 0, 0 )
93/shapes = [  ]
93/z_index = 0
94/name = "cybernoid_level2_tiles_32x32.bmp 00094"
94/texture = ExtResource( 1 )
94/tex_offset = Vector2( 0, 0 )
94/modulate = Color( 1, 1, 1, 1 )
94/region = Rect2( 448, 160, 32, 32 )
94/tile_mode = 0
94/occluder_offset = Vector2( 0, 0 )
94/navigation_offset = Vector2( 0, 0 )
94/shapes = [  ]
94/z_index = 0
95/name = "cybernoid_level2_tiles_32x32.bmp 00095"
95/texture = ExtResource( 1 )
95/tex_offset = Vector2( 0, 0 )
95/modulate = Color( 1, 1, 1, 1 )
95/region = Rect2( 480, 160, 32, 32 )
95/tile_mode = 0
95/occluder_offset = Vector2( 0, 0 )
95/navigation_offset = Vector2( 0, 0 )
95/shapes = [  ]
95/z_index = 0
96/name = "cybernoid_level2_tiles_32x32.bmp 00096"
96/texture = ExtResource( 1 )
96/tex_offset = Vector2( 0, 0 )
96/modulate = Color( 1, 1, 1, 1 )
96/region = Rect2( 0, 192, 32, 32 )
96/tile_mode = 0
96/occluder_offset = Vector2( 0, 0 )
96/navigation_offset = Vector2( 0, 0 )
96/shapes = [  ]
96/z_index = 0
97/name = "cybernoid_level2_tiles_32x32.bmp 00097"
97/texture = ExtResource( 1 )
97/tex_offset = Vector2( 0, 0 )
97/modulate = Color( 1, 1, 1, 1 )
97/region = Rect2( 32, 192, 32, 32 )
97/tile_mode = 0
97/occluder_offset = Vector2( 0, 0 )
97/navigation_offset = Vector2( 0, 0 )
97/shapes = [  ]
97/z_index = 0
98/name = "cybernoid_level2_tiles_32x32.bmp 00098"
98/texture = ExtResource( 1 )
98/tex_offset = Vector2( 0, 0 )
98/modulate = Color( 1, 1, 1, 1 )
98/region = Rect2( 64, 192, 32, 32 )
98/tile_mode = 0
98/occluder_offset = Vector2( 0, 0 )
98/navigation_offset = Vector2( 0, 0 )
98/shapes = [  ]
98/z_index = 0
99/name = "cybernoid_level2_tiles_32x32.bmp 00099"
99/texture = ExtResource( 1 )
99/tex_offset = Vector2( 0, 0 )
99/modulate = Color( 1, 1, 1, 1 )
99/region = Rect2( 96, 192, 32, 32 )
99/tile_mode = 0
99/occluder_offset = Vector2( 0, 0 )
99/navigation_offset = Vector2( 0, 0 )
99/shapes = [  ]
99/z_index = 0
100/name = "cybernoid_level2_tiles_32x32.bmp 00100"
100/texture = ExtResource( 1 )
100/tex_offset = Vector2( 0, 0 )
100/modulate = Color( 1, 1, 1, 1 )
100/region = Rect2( 128, 192, 32, 32 )
100/tile_mode = 0
100/occluder_offset = Vector2( 0, 0 )
100/navigation_offset = Vector2( 0, 0 )
100/shapes = [  ]
100/z_index = 0
101/name = "cybernoid_level2_tiles_32x32.bmp 00101"
101/texture = ExtResource( 1 )
101/tex_offset = Vector2( 0, 0 )
101/modulate = Color( 1, 1, 1, 1 )
101/region = Rect2( 160, 192, 32, 32 )
101/tile_mode = 0
101/occluder_offset = Vector2( 0, 0 )
101/navigation_offset = Vector2( 0, 0 )
101/shapes = [  ]
101/z_index = 0
102/name = "cybernoid_level2_tiles_32x32.bmp 00102"
102/texture = ExtResource( 1 )
102/tex_offset = Vector2( 0, 0 )
102/modulate = Color( 1, 1, 1, 1 )
102/region = Rect2( 192, 192, 32, 32 )
102/tile_mode = 0
102/occluder_offset = Vector2( 0, 0 )
102/navigation_offset = Vector2( 0, 0 )
102/shapes = [  ]
102/z_index = 0
103/name = "cybernoid_level2_tiles_32x32.bmp 00103"
103/texture = ExtResource( 1 )
103/tex_offset = Vector2( 0, 0 )
103/modulate = Color( 1, 1, 1, 1 )
103/region = Rect2( 224, 192, 32, 32 )
103/tile_mode = 0
103/occluder_offset = Vector2( 0, 0 )
103/navigation_offset = Vector2( 0, 0 )
103/shapes = [  ]
103/z_index = 0
104/name = "cybernoid_level2_tiles_32x32.bmp 00104"
104/texture = ExtResource( 1 )
104/tex_offset = Vector2( 0, 0 )
104/modulate = Color( 1, 1, 1, 1 )
104/region = Rect2( 256, 192, 32, 32 )
104/tile_mode = 0
104/occluder_offset = Vector2( 0, 0 )
104/navigation_offset = Vector2( 0, 0 )
104/shapes = [  ]
104/z_index = 0
105/name = "cybernoid_level2_tiles_32x32.bmp 00105"
105/texture = ExtResource( 1 )
105/tex_offset = Vector2( 0, 0 )
105/modulate = Color( 1, 1, 1, 1 )
105/region = Rect2( 288, 192, 32, 32 )
105/tile_mode = 0
105/occluder_offset = Vector2( 0, 0 )
105/navigation_offset = Vector2( 0, 0 )
105/shapes = [  ]
105/z_index = 0
106/name = "cybernoid_level2_tiles_32x32.bmp 00106"
106/texture = ExtResource( 1 )
106/tex_offset = Vector2( 0, 0 )
106/modulate = Color( 1, 1, 1, 1 )
106/region = Rect2( 320, 192, 32, 32 )
106/tile_mode = 0
106/occluder_offset = Vector2( 0, 0 )
106/navigation_offset = Vector2( 0, 0 )
106/shapes = [  ]
106/z_index = 0
107/name = "cybernoid_level2_tiles_32x32.bmp 00107"
107/texture = ExtResource( 1 )
107/tex_offset = Vector2( 0, 0 )
107/modulate = Color( 1, 1, 1, 1 )
107/region = Rect2( 352, 192, 32, 32 )
107/tile_mode = 0
107/occluder_offset = Vector2( 0, 0 )
107/navigation_offset = Vector2( 0, 0 )
107/shapes = [  ]
107/z_index = 0
108/name = "cybernoid_level2_tiles_32x32.bmp 00108"
108/texture = ExtResource( 1 )
108/tex_offset = Vector2( 0, 0 )
108/modulate = Color( 1, 1, 1, 1 )
108/region = Rect2( 384, 192, 32, 32 )
108/tile_mode = 0
108/occluder_offset = Vector2( 0, 0 )
108/navigation_offset = Vector2( 0, 0 )
108/shapes = [  ]
108/z_index = 0
109/name = "cybernoid_level2_tiles_32x32.bmp 00109"
109/texture = ExtResource( 1 )
109/tex_offset = Vector2( 0, 0 )
109/modulate = Color( 1, 1, 1, 1 )
109/region = Rect2( 416, 192, 32, 32 )
109/tile_mode = 0
109/occluder_offset = Vector2( 0, 0 )
109/navigation_offset = Vector2( 0, 0 )
109/shapes = [  ]
109/z_index = 0
110/name = "cybernoid_level2_tiles_32x32.bmp 00110"
110/texture = ExtResource( 1 )
110/tex_offset = Vector2( 0, 0 )
110/modulate = Color( 1, 1, 1, 1 )
110/region = Rect2( 448, 192, 32, 32 )
110/tile_mode = 0
110/occluder_offset = Vector2( 0, 0 )
110/navigation_offset = Vector2( 0, 0 )
110/shapes = [  ]
110/z_index = 0
111/name = "cybernoid_level2_tiles_32x32.bmp 00111"
111/texture = ExtResource( 1 )
111/tex_offset = Vector2( 0, 0 )
111/modulate = Color( 1, 1, 1, 1 )
111/region = Rect2( 480, 192, 32, 32 )
111/tile_mode = 0
111/occluder_offset = Vector2( 0, 0 )
111/navigation_offset = Vector2( 0, 0 )
111/shapes = [  ]
111/z_index = 0
112/name = "cybernoid_level2_tiles_32x32.bmp 00112"
112/texture = ExtResource( 1 )
112/tex_offset = Vector2( 0, 0 )
112/modulate = Color( 1, 1, 1, 1 )
112/region = Rect2( 0, 224, 32, 32 )
112/tile_mode = 0
112/occluder_offset = Vector2( 0, 0 )
112/navigation_offset = Vector2( 0, 0 )
112/shapes = [  ]
112/z_index = 0
113/name = "cybernoid_level2_tiles_32x32.bmp 00113"
113/texture = ExtResource( 1 )
113/tex_offset = Vector2( 0, 0 )
113/modulate = Color( 1, 1, 1, 1 )
113/region = Rect2( 32, 224, 32, 32 )
113/tile_mode = 0
113/occluder_offset = Vector2( 0, 0 )
113/navigation_offset = Vector2( 0, 0 )
113/shapes = [  ]
113/z_index = 0
114/name = "cybernoid_level2_tiles_32x32.bmp 00114"
114/texture = ExtResource( 1 )
114/tex_offset = Vector2( 0, 0 )
114/modulate = Color( 1, 1, 1, 1 )
114/region = Rect2( 64, 224, 32, 32 )
114/tile_mode = 0
114/occluder_offset = Vector2( 0, 0 )
114/navigation_offset = Vector2( 0, 0 )
114/shapes = [  ]
114/z_index = 0
115/name = "cybernoid_level2_tiles_32x32.bmp 00115"
115/texture = ExtResource( 1 )
115/tex_offset = Vector2( 0, 0 )
115/modulate = Color( 1, 1, 1, 1 )
115/region = Rect2( 96, 224, 32, 32 )
115/tile_mode = 0
115/occluder_offset = Vector2( 0, 0 )
115/navigation_offset = Vector2( 0, 0 )
115/shapes = [  ]
115/z_index = 0
116/name = "cybernoid_level2_tiles_32x32.bmp 00116"
116/texture = ExtResource( 1 )
116/tex_offset = Vector2( 0, 0 )
116/modulate = Color( 1, 1, 1, 1 )
116/region = Rect2( 128, 224, 32, 32 )
116/tile_mode = 0
116/occluder_offset = Vector2( 0, 0 )
116/navigation_offset = Vector2( 0, 0 )
116/shapes = [  ]
116/z_index = 0
117/name = "cybernoid_level2_tiles_32x32.bmp 00117"
117/texture = ExtResource( 1 )
117/tex_offset = Vector2( 0, 0 )
117/modulate = Color( 1, 1, 1, 1 )
117/region = Rect2( 160, 224, 32, 32 )
117/tile_mode = 0
117/occluder_offset = Vector2( 0, 0 )
117/navigation_offset = Vector2( 0, 0 )
117/shapes = [  ]
117/z_index = 0
118/name = "cybernoid_level2_tiles_32x32.bmp 00118"
118/texture = ExtResource( 1 )
118/tex_offset = Vector2( 0, 0 )
118/modulate = Color( 1, 1, 1, 1 )
118/region = Rect2( 192, 224, 32, 32 )
118/tile_mode = 0
118/occluder_offset = Vector2( 0, 0 )
118/navigation_offset = Vector2( 0, 0 )
118/shapes = [  ]
118/z_index = 0
119/name = "cybernoid_level2_tiles_32x32.bmp 00119"
119/texture = ExtResource( 1 )
119/tex_offset = Vector2( 0, 0 )
119/modulate = Color( 1, 1, 1, 1 )
119/region = Rect2( 224, 224, 32, 32 )
119/tile_mode = 0
119/occluder_offset = Vector2( 0, 0 )
119/navigation_offset = Vector2( 0, 0 )
119/shapes = [  ]
119/z_index = 0
120/name = "cybernoid_level2_tiles_32x32.bmp 00120"
120/texture = ExtResource( 1 )
120/tex_offset = Vector2( 0, 0 )
120/modulate = Color( 1, 1, 1, 1 )
120/region = Rect2( 256, 224, 32, 32 )
120/tile_mode = 0
120/occluder_offset = Vector2( 0, 0 )
120/navigation_offset = Vector2( 0, 0 )
120/shapes = [  ]
120/z_index = 0
121/name = "cybernoid_level2_tiles_32x32.bmp 00121"
121/texture = ExtResource( 1 )
121/tex_offset = Vector2( 0, 0 )
121/modulate = Color( 1, 1, 1, 1 )
121/region = Rect2( 288, 224, 32, 32 )
121/tile_mode = 0
121/occluder_offset = Vector2( 0, 0 )
121/navigation_offset = Vector2( 0, 0 )
121/shapes = [  ]
121/z_index = 0
122/name = "cybernoid_level2_tiles_32x32.bmp 00122"
122/texture = ExtResource( 1 )
122/tex_offset = Vector2( 0, 0 )
122/modulate = Color( 1, 1, 1, 1 )
122/region = Rect2( 320, 224, 32, 32 )
122/tile_mode = 0
122/occluder_offset = Vector2( 0, 0 )
122/navigation_offset = Vector2( 0, 0 )
122/shapes = [  ]
122/z_index = 0
123/name = "cybernoid_level2_tiles_32x32.bmp 00123"
123/texture = ExtResource( 1 )
123/tex_offset = Vector2( 0, 0 )
123/modulate = Color( 1, 1, 1, 1 )
123/region = Rect2( 352, 224, 32, 32 )
123/tile_mode = 0
123/occluder_offset = Vector2( 0, 0 )
123/navigation_offset = Vector2( 0, 0 )
123/shapes = [  ]
123/z_index = 0
124/name = "cybernoid_level2_tiles_32x32.bmp 00124"
124/texture = ExtResource( 1 )
124/tex_offset = Vector2( 0, 0 )
124/modulate = Color( 1, 1, 1, 1 )
124/region = Rect2( 384, 224, 32, 32 )
124/tile_mode = 0
124/occluder_offset = Vector2( 0, 0 )
124/navigation_offset = Vector2( 0, 0 )
124/shapes = [  ]
124/z_index = 0
125/name = "cybernoid_level2_tiles_32x32.bmp 00125"
125/texture = ExtResource( 1 )
125/tex_offset = Vector2( 0, 0 )
125/modulate = Color( 1, 1, 1, 1 )
125/region = Rect2( 416, 224, 32, 32 )
125/tile_mode = 0
125/occluder_offset = Vector2( 0, 0 )
125/navigation_offset = Vector2( 0, 0 )
125/shapes = [  ]
125/z_index = 0
126/name = "cybernoid_level2_tiles_32x32.bmp 00126"
126/texture = ExtResource( 1 )
126/tex_offset = Vector2( 0, 0 )
126/modulate = Color( 1, 1, 1, 1 )
126/region = Rect2( 448, 224, 32, 32 )
126/tile_mode = 0
126/occluder_offset = Vector2( 0, 0 )
126/navigation_offset = Vector2( 0, 0 )
126/shapes = [  ]
126/z_index = 0
127/name = "cybernoid_level2_tiles_32x32.bmp 00127"
127/texture = ExtResource( 1 )
127/tex_offset = Vector2( 0, 0 )
127/modulate = Color( 1, 1, 1, 1 )
127/region = Rect2( 480, 224, 32, 32 )
127/tile_mode = 0
127/occluder_offset = Vector2( 0, 0 )
127/navigation_offset = Vector2( 0, 0 )
127/shapes = [  ]
127/z_index = 0
128/name = "cybernoid_level2_tiles_32x32.bmp 00128"
128/texture = ExtResource( 1 )
128/tex_offset = Vector2( 0, 0 )
128/modulate = Color( 1, 1, 1, 1 )
128/region = Rect2( 0, 256, 32, 32 )
128/tile_mode = 0
128/occluder_offset = Vector2( 0, 0 )
128/navigation_offset = Vector2( 0, 0 )
128/shapes = [  ]
128/z_index = 0
129/name = "cybernoid_level2_tiles_32x32.bmp 00129"
129/texture = ExtResource( 1 )
129/tex_offset = Vector2( 0, 0 )
129/modulate = Color( 1, 1, 1, 1 )
129/region = Rect2( 32, 256, 32, 32 )
129/tile_mode = 0
129/occluder_offset = Vector2( 0, 0 )
129/navigation_offset = Vector2( 0, 0 )
129/shapes = [  ]
129/z_index = 0
130/name = "cybernoid_level2_tiles_32x32.bmp 00130"
130/texture = ExtResource( 1 )
130/tex_offset = Vector2( 0, 0 )
130/modulate = Color( 1, 1, 1, 1 )
130/region = Rect2( 64, 256, 32, 32 )
130/tile_mode = 0
130/occluder_offset = Vector2( 0, 0 )
130/navigation_offset = Vector2( 0, 0 )
130/shapes = [  ]
130/z_index = 0
131/name = "cybernoid_level2_tiles_32x32.bmp 00131"
131/texture = ExtResource( 1 )
131/tex_offset = Vector2( 0, 0 )
131/modulate = Color( 1, 1, 1, 1 )
131/region = Rect2( 96, 256, 32, 32 )
131/tile_mode = 0
131/occluder_offset = Vector2( 0, 0 )
131/navigation_offset = Vector2( 0, 0 )
131/shapes = [  ]
131/z_index = 0
132/name = "cybernoid_level2_tiles_32x32.bmp 00132"
132/texture = ExtResource( 1 )
132/tex_offset = Vector2( 0, 0 )
132/modulate = Color( 1, 1, 1, 1 )
132/region = Rect2( 128, 256, 32, 32 )
132/tile_mode = 0
132/occluder_offset = Vector2( 0, 0 )
132/navigation_offset = Vector2( 0, 0 )
132/shapes = [  ]
132/z_index = 0
133/name = "cybernoid_level2_tiles_32x32.bmp 00133"
133/texture = ExtResource( 1 )
133/tex_offset = Vector2( 0, 0 )
133/modulate = Color( 1, 1, 1, 1 )
133/region = Rect2( 160, 256, 32, 32 )
133/tile_mode = 0
133/occluder_offset = Vector2( 0, 0 )
133/navigation_offset = Vector2( 0, 0 )
133/shapes = [  ]
133/z_index = 0
134/name = "cybernoid_level2_tiles_32x32.bmp 00134"
134/texture = ExtResource( 1 )
134/tex_offset = Vector2( 0, 0 )
134/modulate = Color( 1, 1, 1, 1 )
134/region = Rect2( 192, 256, 32, 32 )
134/tile_mode = 0
134/occluder_offset = Vector2( 0, 0 )
134/navigation_offset = Vector2( 0, 0 )
134/shapes = [  ]
134/z_index = 0
135/name = "cybernoid_level2_tiles_32x32.bmp 00135"
135/texture = ExtResource( 1 )
135/tex_offset = Vector2( 0, 0 )
135/modulate = Color( 1, 1, 1, 1 )
135/region = Rect2( 224, 256, 32, 32 )
135/tile_mode = 0
135/occluder_offset = Vector2( 0, 0 )
135/navigation_offset = Vector2( 0, 0 )
135/shapes = [  ]
135/z_index = 0
136/name = "cybernoid_level2_tiles_32x32.bmp 00136"
136/texture = ExtResource( 1 )
136/tex_offset = Vector2( 0, 0 )
136/modulate = Color( 1, 1, 1, 1 )
136/region = Rect2( 256, 256, 32, 32 )
136/tile_mode = 0
136/occluder_offset = Vector2( 0, 0 )
136/navigation_offset = Vector2( 0, 0 )
136/shapes = [  ]
136/z_index = 0
137/name = "cybernoid_level2_tiles_32x32.bmp 00137"
137/texture = ExtResource( 1 )
137/tex_offset = Vector2( 0, 0 )
137/modulate = Color( 1, 1, 1, 1 )
137/region = Rect2( 288, 256, 32, 32 )
137/tile_mode = 0
137/occluder_offset = Vector2( 0, 0 )
137/navigation_offset = Vector2( 0, 0 )
137/shapes = [  ]
137/z_index = 0
138/name = "cybernoid_level2_tiles_32x32.bmp 00138"
138/texture = ExtResource( 1 )
138/tex_offset = Vector2( 0, 0 )
138/modulate = Color( 1, 1, 1, 1 )
138/region = Rect2( 320, 256, 32, 32 )
138/tile_mode = 0
138/occluder_offset = Vector2( 0, 0 )
138/navigation_offset = Vector2( 0, 0 )
138/shapes = [  ]
138/z_index = 0
139/name = "cybernoid_level2_tiles_32x32.bmp 00139"
139/texture = ExtResource( 1 )
139/tex_offset = Vector2( 0, 0 )
139/modulate = Color( 1, 1, 1, 1 )
139/region = Rect2( 352, 256, 32, 32 )
139/tile_mode = 0
139/occluder_offset = Vector2( 0, 0 )
139/navigation_offset = Vector2( 0, 0 )
139/shapes = [  ]
139/z_index = 0
140/name = "cybernoid_level2_tiles_32x32.bmp 00140"
140/texture = ExtResource( 1 )
140/tex_offset = Vector2( 0, 0 )
140/modulate = Color( 1, 1, 1, 1 )
140/region = Rect2( 384, 256, 32, 32 )
140/tile_mode = 0
140/occluder_offset = Vector2( 0, 0 )
140/navigation_offset = Vector2( 0, 0 )
140/shapes = [  ]
140/z_index = 0
141/name = "cybernoid_level2_tiles_32x32.bmp 00141"
141/texture = ExtResource( 1 )
141/tex_offset = Vector2( 0, 0 )
141/modulate = Color( 1, 1, 1, 1 )
141/region = Rect2( 416, 256, 32, 32 )
141/tile_mode = 0
141/occluder_offset = Vector2( 0, 0 )
141/navigation_offset = Vector2( 0, 0 )
141/shapes = [  ]
141/z_index = 0
142/name = "cybernoid_level2_tiles_32x32.bmp 00142"
142/texture = ExtResource( 1 )
142/tex_offset = Vector2( 0, 0 )
142/modulate = Color( 1, 1, 1, 1 )
142/region = Rect2( 448, 256, 32, 32 )
142/tile_mode = 0
142/occluder_offset = Vector2( 0, 0 )
142/navigation_offset = Vector2( 0, 0 )
142/shapes = [  ]
142/z_index = 0
143/name = "cybernoid_level2_tiles_32x32.bmp 00143"
143/texture = ExtResource( 1 )
143/tex_offset = Vector2( 0, 0 )
143/modulate = Color( 1, 1, 1, 1 )
143/region = Rect2( 480, 256, 32, 32 )
143/tile_mode = 0
143/occluder_offset = Vector2( 0, 0 )
143/navigation_offset = Vector2( 0, 0 )
143/shapes = [  ]
143/z_index = 0
144/name = "cybernoid_level2_tiles_32x32.bmp 00144"
144/texture = ExtResource( 1 )
144/tex_offset = Vector2( 0, 0 )
144/modulate = Color( 1, 1, 1, 1 )
144/region = Rect2( 0, 288, 32, 32 )
144/tile_mode = 0
144/occluder_offset = Vector2( 0, 0 )
144/navigation_offset = Vector2( 0, 0 )
144/shapes = [  ]
144/z_index = 0
145/name = "cybernoid_level2_tiles_32x32.bmp 00145"
145/texture = ExtResource( 1 )
145/tex_offset = Vector2( 0, 0 )
145/modulate = Color( 1, 1, 1, 1 )
145/region = Rect2( 32, 288, 32, 32 )
145/tile_mode = 0
145/occluder_offset = Vector2( 0, 0 )
145/navigation_offset = Vector2( 0, 0 )
145/shapes = [  ]
145/z_index = 0
146/name = "cybernoid_level2_tiles_32x32.bmp 00146"
146/texture = ExtResource( 1 )
146/tex_offset = Vector2( 0, 0 )
146/modulate = Color( 1, 1, 1, 1 )
146/region = Rect2( 64, 288, 32, 32 )
146/tile_mode = 0
146/occluder_offset = Vector2( 0, 0 )
146/navigation_offset = Vector2( 0, 0 )
146/shapes = [  ]
146/z_index = 0
147/name = "cybernoid_level2_tiles_32x32.bmp 00147"
147/texture = ExtResource( 1 )
147/tex_offset = Vector2( 0, 0 )
147/modulate = Color( 1, 1, 1, 1 )
147/region = Rect2( 96, 288, 32, 32 )
147/tile_mode = 0
147/occluder_offset = Vector2( 0, 0 )
147/navigation_offset = Vector2( 0, 0 )
147/shapes = [  ]
147/z_index = 0
148/name = "cybernoid_level2_tiles_32x32.bmp 00148"
148/texture = ExtResource( 1 )
148/tex_offset = Vector2( 0, 0 )
148/modulate = Color( 1, 1, 1, 1 )
148/region = Rect2( 128, 288, 32, 32 )
148/tile_mode = 0
148/occluder_offset = Vector2( 0, 0 )
148/navigation_offset = Vector2( 0, 0 )
148/shapes = [  ]
148/z_index = 0
149/name = "cybernoid_level2_tiles_32x32.bmp 00149"
149/texture = ExtResource( 1 )
149/tex_offset = Vector2( 0, 0 )
149/modulate = Color( 1, 1, 1, 1 )
149/region = Rect2( 160, 288, 32, 32 )
149/tile_mode = 0
149/occluder_offset = Vector2( 0, 0 )
149/navigation_offset = Vector2( 0, 0 )
149/shapes = [  ]
149/z_index = 0
150/name = "cybernoid_level2_tiles_32x32.bmp 00150"
150/texture = ExtResource( 1 )
150/tex_offset = Vector2( 0, 0 )
150/modulate = Color( 1, 1, 1, 1 )
150/region = Rect2( 192, 288, 32, 32 )
150/tile_mode = 0
150/occluder_offset = Vector2( 0, 0 )
150/navigation_offset = Vector2( 0, 0 )
150/shapes = [  ]
150/z_index = 0
151/name = "cybernoid_level2_tiles_32x32.bmp 00151"
151/texture = ExtResource( 1 )
151/tex_offset = Vector2( 0, 0 )
151/modulate = Color( 1, 1, 1, 1 )
151/region = Rect2( 224, 288, 32, 32 )
151/tile_mode = 0
151/occluder_offset = Vector2( 0, 0 )
151/navigation_offset = Vector2( 0, 0 )
151/shapes = [  ]
151/z_index = 0
152/name = "cybernoid_level2_tiles_32x32.bmp 00152"
152/texture = ExtResource( 1 )
152/tex_offset = Vector2( 0, 0 )
152/modulate = Color( 1, 1, 1, 1 )
152/region = Rect2( 256, 288, 32, 32 )
152/tile_mode = 0
152/occluder_offset = Vector2( 0, 0 )
152/navigation_offset = Vector2( 0, 0 )
152/shapes = [  ]
152/z_index = 0
153/name = "cybernoid_level2_tiles_32x32.bmp 00153"
153/texture = ExtResource( 1 )
153/tex_offset = Vector2( 0, 0 )
153/modulate = Color( 1, 1, 1, 1 )
153/region = Rect2( 288, 288, 32, 32 )
153/tile_mode = 0
153/occluder_offset = Vector2( 0, 0 )
153/navigation_offset = Vector2( 0, 0 )
153/shapes = [  ]
153/z_index = 0
154/name = "cybernoid_level2_tiles_32x32.bmp 00154"
154/texture = ExtResource( 1 )
154/tex_offset = Vector2( 0, 0 )
154/modulate = Color( 1, 1, 1, 1 )
154/region = Rect2( 320, 288, 32, 32 )
154/tile_mode = 0
154/occluder_offset = Vector2( 0, 0 )
154/navigation_offset = Vector2( 0, 0 )
154/shapes = [  ]
154/z_index = 0
155/name = "cybernoid_level2_tiles_32x32.bmp 00155"
155/texture = ExtResource( 1 )
155/tex_offset = Vector2( 0, 0 )
155/modulate = Color( 1, 1, 1, 1 )
155/region = Rect2( 352, 288, 32, 32 )
155/tile_mode = 0
155/occluder_offset = Vector2( 0, 0 )
155/navigation_offset = Vector2( 0, 0 )
155/shapes = [  ]
155/z_index = 0
156/name = "cybernoid_level2_tiles_32x32.bmp 00156"
156/texture = ExtResource( 1 )
156/tex_offset = Vector2( 0, 0 )
156/modulate = Color( 1, 1, 1, 1 )
156/region = Rect2( 384, 288, 32, 32 )
156/tile_mode = 0
156/occluder_offset = Vector2( 0, 0 )
156/navigation_offset = Vector2( 0, 0 )
156/shapes = [  ]
156/z_index = 0
157/name = "cybernoid_level2_tiles_32x32.bmp 00157"
157/texture = ExtResource( 1 )
157/tex_offset = Vector2( 0, 0 )
157/modulate = Color( 1, 1, 1, 1 )
157/region = Rect2( 416, 288, 32, 32 )
157/tile_mode = 0
157/occluder_offset = Vector2( 0, 0 )
157/navigation_offset = Vector2( 0, 0 )
157/shapes = [  ]
157/z_index = 0
158/name = "cybernoid_level2_tiles_32x32.bmp 00158"
158/texture = ExtResource( 1 )
158/tex_offset = Vector2( 0, 0 )
158/modulate = Color( 1, 1, 1, 1 )
158/region = Rect2( 448, 288, 32, 32 )
158/tile_mode = 0
158/occluder_offset = Vector2( 0, 0 )
158/navigation_offset = Vector2( 0, 0 )
158/shapes = [  ]
158/z_index = 0
159/name = "cybernoid_level2_tiles_32x32.bmp 00159"
159/texture = ExtResource( 1 )
159/tex_offset = Vector2( 0, 0 )
159/modulate = Color( 1, 1, 1, 1 )
159/region = Rect2( 480, 288, 32, 32 )
159/tile_mode = 0
159/occluder_offset = Vector2( 0, 0 )
159/navigation_offset = Vector2( 0, 0 )
159/shapes = [  ]
159/z_index = 0
160/name = "cybernoid_level2_tiles_32x32.bmp 00160"
160/texture = ExtResource( 1 )
160/tex_offset = Vector2( 0, 0 )
160/modulate = Color( 1, 1, 1, 1 )
160/region = Rect2( 0, 320, 32, 32 )
160/tile_mode = 0
160/occluder_offset = Vector2( 0, 0 )
160/navigation_offset = Vector2( 0, 0 )
160/shapes = [  ]
160/z_index = 0
161/name = "cybernoid_level2_tiles_32x32.bmp 00161"
161/texture = ExtResource( 1 )
161/tex_offset = Vector2( 0, 0 )
161/modulate = Color( 1, 1, 1, 1 )
161/region = Rect2( 32, 320, 32, 32 )
161/tile_mode = 0
161/occluder_offset = Vector2( 0, 0 )
161/navigation_offset = Vector2( 0, 0 )
161/shapes = [  ]
161/z_index = 0
162/name = "cybernoid_level2_tiles_32x32.bmp 00162"
162/texture = ExtResource( 1 )
162/tex_offset = Vector2( 0, 0 )
162/modulate = Color( 1, 1, 1, 1 )
162/region = Rect2( 64, 320, 32, 32 )
162/tile_mode = 0
162/occluder_offset = Vector2( 0, 0 )
162/navigation_offset = Vector2( 0, 0 )
162/shapes = [  ]
162/z_index = 0
163/name = "cybernoid_level2_tiles_32x32.bmp 00163"
163/texture = ExtResource( 1 )
163/tex_offset = Vector2( 0, 0 )
163/modulate = Color( 1, 1, 1, 1 )
163/region = Rect2( 96, 320, 32, 32 )
163/tile_mode = 0
163/occluder_offset = Vector2( 0, 0 )
163/navigation_offset = Vector2( 0, 0 )
163/shapes = [  ]
163/z_index = 0
164/name = "cybernoid_level2_tiles_32x32.bmp 00164"
164/texture = ExtResource( 1 )
164/tex_offset = Vector2( 0, 0 )
164/modulate = Color( 1, 1, 1, 1 )
164/region = Rect2( 128, 320, 32, 32 )
164/tile_mode = 0
164/occluder_offset = Vector2( 0, 0 )
164/navigation_offset = Vector2( 0, 0 )
164/shapes = [  ]
164/z_index = 0
165/name = "cybernoid_level2_tiles_32x32.bmp 00165"
165/texture = ExtResource( 1 )
165/tex_offset = Vector2( 0, 0 )
165/modulate = Color( 1, 1, 1, 1 )
165/region = Rect2( 160, 320, 32, 32 )
165/tile_mode = 0
165/occluder_offset = Vector2( 0, 0 )
165/navigation_offset = Vector2( 0, 0 )
165/shapes = [  ]
165/z_index = 0
166/name = "cybernoid_level2_tiles_32x32.bmp 00166"
166/texture = ExtResource( 1 )
166/tex_offset = Vector2( 0, 0 )
166/modulate = Color( 1, 1, 1, 1 )
166/region = Rect2( 192, 320, 32, 32 )
166/tile_mode = 0
166/occluder_offset = Vector2( 0, 0 )
166/navigation_offset = Vector2( 0, 0 )
166/shapes = [  ]
166/z_index = 0
167/name = "cybernoid_level2_tiles_32x32.bmp 00167"
167/texture = ExtResource( 1 )
167/tex_offset = Vector2( 0, 0 )
167/modulate = Color( 1, 1, 1, 1 )
167/region = Rect2( 224, 320, 32, 32 )
167/tile_mode = 0
167/occluder_offset = Vector2( 0, 0 )
167/navigation_offset = Vector2( 0, 0 )
167/shapes = [  ]
167/z_index = 0
168/name = "cybernoid_level2_tiles_32x32.bmp 00168"
168/texture = ExtResource( 1 )
168/tex_offset = Vector2( 0, 0 )
168/modulate = Color( 1, 1, 1, 1 )
168/region = Rect2( 256, 320, 32, 32 )
168/tile_mode = 0
168/occluder_offset = Vector2( 0, 0 )
168/navigation_offset = Vector2( 0, 0 )
168/shapes = [  ]
168/z_index = 0
169/name = "cybernoid_level2_tiles_32x32.bmp 00169"
169/texture = ExtResource( 1 )
169/tex_offset = Vector2( 0, 0 )
169/modulate = Color( 1, 1, 1, 1 )
169/region = Rect2( 288, 320, 32, 32 )
169/tile_mode = 0
169/occluder_offset = Vector2( 0, 0 )
169/navigation_offset = Vector2( 0, 0 )
169/shapes = [  ]
169/z_index = 0
170/name = "cybernoid_level2_tiles_32x32.bmp 00170"
170/texture = ExtResource( 1 )
170/tex_offset = Vector2( 0, 0 )
170/modulate = Color( 1, 1, 1, 1 )
170/region = Rect2( 320, 320, 32, 32 )
170/tile_mode = 0
170/occluder_offset = Vector2( 0, 0 )
170/navigation_offset = Vector2( 0, 0 )
170/shapes = [  ]
170/z_index = 0
171/name = "cybernoid_level2_tiles_32x32.bmp 00171"
171/texture = ExtResource( 1 )
171/tex_offset = Vector2( 0, 0 )
171/modulate = Color( 1, 1, 1, 1 )
171/region = Rect2( 352, 320, 32, 32 )
171/tile_mode = 0
171/occluder_offset = Vector2( 0, 0 )
171/navigation_offset = Vector2( 0, 0 )
171/shapes = [  ]
171/z_index = 0
172/name = "cybernoid_level2_tiles_32x32.bmp 00172"
172/texture = ExtResource( 1 )
172/tex_offset = Vector2( 0, 0 )
172/modulate = Color( 1, 1, 1, 1 )
172/region = Rect2( 384, 320, 32, 32 )
172/tile_mode = 0
172/occluder_offset = Vector2( 0, 0 )
172/navigation_offset = Vector2( 0, 0 )
172/shapes = [  ]
172/z_index = 0
173/name = "cybernoid_level2_tiles_32x32.bmp 00173"
173/texture = ExtResource( 1 )
173/tex_offset = Vector2( 0, 0 )
173/modulate = Color( 1, 1, 1, 1 )
173/region = Rect2( 416, 320, 32, 32 )
173/tile_mode = 0
173/occluder_offset = Vector2( 0, 0 )
173/navigation_offset = Vector2( 0, 0 )
173/shapes = [  ]
173/z_index = 0
174/name = "cybernoid_level2_tiles_32x32.bmp 00174"
174/texture = ExtResource( 1 )
174/tex_offset = Vector2( 0, 0 )
174/modulate = Color( 1, 1, 1, 1 )
174/region = Rect2( 448, 320, 32, 32 )
174/tile_mode = 0
174/occluder_offset = Vector2( 0, 0 )
174/navigation_offset = Vector2( 0, 0 )
174/shapes = [  ]
174/z_index = 0
175/name = "cybernoid_level2_tiles_32x32.bmp 00175"
175/texture = ExtResource( 1 )
175/tex_offset = Vector2( 0, 0 )
175/modulate = Color( 1, 1, 1, 1 )
175/region = Rect2( 480, 320, 32, 32 )
175/tile_mode = 0
175/occluder_offset = Vector2( 0, 0 )
175/navigation_offset = Vector2( 0, 0 )
175/shapes = [  ]
175/z_index = 0


[node name="TileMap" type="TileMap"]
format=1
tile_set = SubResource( 1 )
cell_size = Vector2( 32, 32 )
tile_data = PoolIntArray( 0, 0, 0, 1, 1, 0, 2, 2, 0, 3, 3, 0, 4, 3, 0, 5, 3, 0, 6, 3, 0, 7, 3, 0, 8, 3, 0, 9, 3, 0, 10, 3, 0, 11, 3, 0, 12, 3, 0, 13, 3, 0, 14, 3, 0, 15, 3, 0, 16, 3, 0, 17, 3, 0, 18, 3, 0, 19, 3, 0, 20, 3, 0, 21, 3, 0, 22, 3, 0, 23, 3, 0, 24, 3, 0, 25, 3, 0, 26, 3, 0, 27, 3, 0, 28, 3, 0, 29, 4, 0, 30, 0, 0, 31, 1, 0, 32, 0, 0, 33, 1, 0, 34, 5, 0, 35, 6, 0, 36, 5, 0, 37, 1, 0, 38, 0, 0, 39, 6, 0, 40, 5, 0, 41, 1, 0, 42, 0, 0, 43, 7, 0, 44, 6, 0, 45, 5, 0, 46, 0, 0, 47, 1, 0, 48, 0, 0, 49, 1, 0, 50, 5, 0, 51, 6, 0, 52, 7, 0, 53, 1, 0, 54, 5, 0, 55, 6, 0, 56, 7, 0, 57, 0, 0, 58, 1, 0, 59, 5, 0, 60, 6, 0, 61, 7, 0, 62, 1, 0, 63, 0, 0, 64, 6, 0, 65, 1, 0, 66, 5, 0, 67, 6, 0, 68, 1, 0, 69, 0, 0, 70, 5, 0, 71, 6, 0, 72, 0, 0, 73, 1, 0, 74, 7, 0, 75, 6, 0, 76, 0, 0, 77, 1, 0, 78, 5, 0, 79, 0, 0, 80, 0, 0, 81, 8, 0, 82, 0, 0, 83, 1, 0, 84, 5, 0, 85, 6, 0, 86, 0, 0, 87, 1, 0, 88, 5, 0, 89, 6, 0, 90, 0, 0, 91, 5, 0, 92, 6, 0, 93, 0, 0, 94, 1, 0, 95, 5, 0, 65536, 6, 0, 65537, 5, 0, 65538, 8, 0, 65541, 10, 0, 65543, 10, 0, 65545, 10, 0, 65547, 10, 0, 65554, 11, 0, 65555, 11, 0, 65556, 11, 0, 65562, 12, 0, 65563, 13, 0, 65565, 8, 0, 65566, 5, 0, 65567, 6, 0, 65568, 0, 0, 65569, 0, 0, 65570, 1, 0, 65571, 5, 0, 65572, 2, 0, 65573, 3, 0, 65574, 3, 0, 65575, 3, 0, 65576, 3, 0, 65577, 3, 0, 65578, 3, 0, 65579, 3, 0, 65580, 3, 0, 65581, 3, 0, 65582, 3, 0, 65583, 3, 0, 65584, 3, 0, 65585, 3, 0, 65586, 3, 0, 65587, 3, 0, 65588, 3, 0, 65589, 3, 0, 65590, 14, 0, 65591, 15, 0, 65592, 16, 0, 65593, 3, 0, 65594, 3, 0, 65595, 3, 0, 65596, 3, 0, 65597, 3, 0, 65598, 4, 0, 65599, 0, 0, 65600, 5, 0, 65601, 0, 0, 65602, 2, 0, 65603, 3, 0, 65604, 3, 0, 65605, 3, 0, 65606, 3, 0, 65607, 3, 0, 65608, 3, 0, 65609, 3, 0, 65610, 3, 0, 65611, 3, 0, 65612, 3, 0, 65613, 3, 0, 65614, 3, 0, 65615, 3, 0, 65616, 3, 0, 65617, 17, 0, 65618, 18, 0, 65619, 19, 0, 65620, 20, 0, 65621, 21, 0, 65622, 19, 0, 65623, 20, 0, 65624, 21, 0, 65625, 19, 0, 65626, 18, 0, 65627, 19, 0, 65628, 18, 0, 65629, 20, 0, 65630, 19, 0, 65631, 18, 0, 131072, 1, 0, 131073, 0, 0, 131074, 8, 0, 131077, 22, 0, 131079, 23, 0, 131081, 22, 0, 131083, 23, 0, 131085, 24, 0, 131086, 3, 0, 131087, 3, 0, 131088, 3, 0, 131089, 25, 0, 131098, 26, 0, 131099, 27, 0, 131101, 8, 0, 131102, 0, 0, 131103, 1, 0, 131104, 1, 0, 131105, 0, 0, 131106, 5, 0, 131107, 1, 0, 131108, 8, 0, 131110, 28, 0, 131111, 29, 0, 131127, 11, 0, 131134, 8, 0, 131135, 1, 0, 131136, 0, 0, 131137, 1, 0, 131138, 8, 0, 131140, 30, 0, 131141, 31, 0, 131142, 32, 0, 131143, 32, 0, 131144, 32, 0, 131145, 33, 0, 131166, 2, 0, 131167, 3, 0, 196608, 6, 0, 196609, 0, 0, 196610, 8, 0, 196614, 34, 0, 196615, 23, 0, 196618, 34, 0, 196619, 23, 0, 196621, 8, 0, 196622, 0, 0, 196623, 1, 0, 196624, 0, 0, 196625, 8, 0, 196637, 8, 0, 196638, 6, 0, 196639, 5, 0, 196640, 5, 0, 196641, 2, 0, 196642, 3, 0, 196643, 3, 0, 196644, 17, 0, 196646, 35, 0, 196647, 36, 0, 196668, 37, 0, 196670, 8, 0, 196671, 5, 0, 196672, 1, 0, 196673, 5, 0, 196674, 8, 0, 196676, 38, 0, 196677, 24, 0, 196678, 3, 0, 196679, 3, 0, 196680, 39, 0, 196681, 40, 0, 196682, 39, 0, 196683, 3, 0, 196684, 3, 0, 196685, 3, 0, 196686, 3, 0, 196687, 3, 0, 196688, 3, 0, 196689, 25, 0, 196702, 8, 0, 196703, 0, 0, 262144, 5, 0, 262145, 1, 0, 262146, 8, 0, 262149, 10, 0, 262150, 41, 0, 262151, 23, 0, 262152, 42, 0, 262153, 10, 0, 262154, 41, 0, 262155, 23, 0, 262157, 8, 0, 262158, 5, 0, 262159, 6, 0, 262160, 1, 0, 262161, 8, 0, 262173, 8, 0, 262174, 7, 0, 262175, 0, 0, 262176, 6, 0, 262177, 8, 0, 262182, 43, 0, 262183, 44, 0, 262204, 45, 0, 262206, 8, 0, 262207, 6, 0, 262208, 7, 0, 262209, 0, 0, 262210, 8, 0, 262213, 8, 0, 262215, 46, 0, 262216, 47, 0, 262218, 48, 0, 262219, 49, 0, 262221, 50, 0, 262222, 51, 0, 262223, 52, 0, 262224, 0, 0, 262225, 8, 0, 262238, 8, 0, 262239, 1, 0, 327680, 6, 0, 327681, 0, 0, 327682, 8, 0, 327685, 23, 0, 327687, 22, 0, 327688, 53, 0, 327689, 23, 0, 327691, 22, 0, 327693, 8, 0, 327694, 0, 0, 327695, 1, 0, 327696, 5, 0, 327697, 8, 0, 327703, 54, 0, 327704, 55, 0, 327709, 8, 0, 327710, 1, 0, 327711, 5, 0, 327712, 0, 0, 327713, 8, 0, 327734, 54, 0, 327735, 55, 0, 327740, 56, 0, 327742, 8, 0, 327743, 7, 0, 327744, 5, 0, 327745, 6, 0, 327746, 8, 0, 327749, 57, 0, 327750, 3, 0, 327751, 3, 0, 327752, 40, 0, 327753, 39, 0, 327754, 40, 0, 327755, 3, 0, 327756, 3, 0, 327757, 3, 0, 327758, 4, 0, 327759, 1, 0, 327760, 1, 0, 327761, 8, 0, 327774, 8, 0, 327775, 5, 0, 393216, 6, 0, 393217, 1, 0, 393218, 8, 0, 393221, 23, 0, 393222, 58, 0, 393225, 23, 0, 393226, 58, 0, 393229, 8, 0, 393230, 5, 0, 393231, 6, 0, 393232, 6, 0, 393233, 8, 0, 393239, 59, 0, 393240, 60, 0, 393242, 61, 0, 393243, 62, 0, 393245, 8, 0, 393246, 7, 0, 393247, 6, 0, 393248, 1, 0, 393249, 8, 0, 393252, 63, 0, 393258, 63, 0, 393259, 64, 0, 393260, 63, 0, 393268, 65, 0, 393269, 65, 0, 393270, 59, 0, 393271, 60, 0, 393272, 65, 0, 393276, 66, 0, 393278, 8, 0, 393279, 1, 0, 393280, 0, 0, 393281, 1, 0, 393282, 8, 0, 393294, 8, 0, 393295, 6, 0, 393296, 5, 0, 393297, 8, 0, 393310, 8, 0, 393311, 6, 0, 458752, 5, 0, 458753, 1, 0, 458754, 8, 0, 458757, 23, 0, 458758, 67, 0, 458759, 10, 0, 458760, 68, 0, 458761, 23, 0, 458762, 67, 0, 458763, 10, 0, 458765, 8, 0, 458766, 0, 0, 458767, 1, 0, 458768, 0, 0, 458769, 8, 0, 458775, 69, 0, 458776, 70, 0, 458778, 71, 0, 458779, 72, 0, 458781, 8, 0, 458782, 0, 0, 458783, 1, 0, 458784, 5, 0, 458785, 8, 0, 458787, 63, 0, 458788, 73, 0, 458789, 63, 0, 458791, 63, 0, 458793, 63, 0, 458794, 73, 0, 458795, 63, 0, 458796, 73, 0, 458797, 63, 0, 458802, 64, 0, 458804, 28, 0, 458805, 29, 0, 458806, 69, 0, 458807, 70, 0, 458808, 28, 0, 458809, 29, 0, 458811, 74, 0, 458812, 75, 0, 458813, 76, 0, 458814, 8, 0, 458815, 5, 0, 458816, 5, 0, 458817, 6, 0, 458818, 8, 0, 458822, 77, 0, 458824, 77, 0, 458826, 77, 0, 458830, 8, 0, 458831, 5, 0, 458832, 7, 0, 458833, 8, 0, 458846, 8, 0, 458847, 7, 0, 524288, 6, 0, 524289, 0, 0, 524290, 8, 0, 524293, 22, 0, 524295, 23, 0, 524296, 78, 0, 524297, 22, 0, 524299, 23, 0, 524301, 8, 0, 524302, 5, 0, 524303, 6, 0, 524304, 1, 0, 524305, 8, 0, 524310, 24, 0, 524311, 3, 0, 524312, 3, 0, 524313, 3, 0, 524314, 3, 0, 524315, 3, 0, 524316, 3, 0, 524317, 79, 0, 524318, 5, 0, 524319, 5, 0, 524320, 6, 0, 524321, 80, 0, 524322, 3, 0, 524323, 3, 0, 524324, 4, 0, 524325, 73, 0, 524326, 63, 0, 524327, 73, 0, 524328, 63, 0, 524329, 73, 0, 524330, 63, 0, 524331, 73, 0, 524332, 2, 0, 524333, 3, 0, 524334, 3, 0, 524335, 3, 0, 524336, 3, 0, 524337, 3, 0, 524338, 3, 0, 524339, 14, 0, 524340, 15, 0, 524341, 15, 0, 524342, 15, 0, 524343, 15, 0, 524344, 15, 0, 524345, 15, 0, 524346, 16, 0, 524347, 3, 0, 524348, 3, 0, 524349, 3, 0, 524350, 79, 0, 524351, 6, 0, 524352, 0, 0, 524353, 1, 0, 524354, 80, 0, 524355, 3, 0, 524356, 3, 0, 524357, 3, 0, 524358, 3, 0, 524359, 3, 0, 524360, 3, 0, 524361, 3, 0, 524362, 3, 0, 524363, 3, 0, 524364, 25, 0, 524366, 8, 0, 524367, 1, 0, 524368, 6, 0, 524369, 8, 0, 524382, 8, 0, 524383, 0, 0, 589824, 0, 0, 589825, 1, 0, 589826, 8, 0, 589828, 24, 0, 589829, 3, 0, 589830, 3, 0, 589831, 3, 0, 589832, 3, 0, 589833, 3, 0, 589834, 3, 0, 589835, 3, 0, 589836, 3, 0, 589837, 79, 0, 589838, 0, 0, 589839, 1, 0, 589840, 5, 0, 589841, 8, 0, 589846, 8, 0, 589847, 0, 0, 589848, 1, 0, 589849, 5, 0, 589850, 6, 0, 589851, 7, 0, 589852, 0, 0, 589853, 1, 0, 589854, 0, 0, 589855, 1, 0, 589856, 0, 0, 589857, 1, 0, 589858, 5, 0, 589859, 0, 0, 589860, 8, 0, 589861, 63, 0, 589862, 73, 0, 589863, 63, 0, 589864, 73, 0, 589865, 63, 0, 589866, 73, 0, 589867, 63, 0, 589868, 8, 0, 589869, 0, 0, 589870, 1, 0, 589871, 5, 0, 589872, 7, 0, 589873, 1, 0, 589874, 5, 0, 589875, 6, 0, 589876, 7, 0, 589877, 0, 0, 589878, 1, 0, 589879, 5, 0, 589880, 0, 0, 589881, 1, 0, 589882, 1, 0, 589883, 5, 0, 589884, 6, 0, 589885, 7, 0, 589886, 1, 0, 589887, 7, 0, 589888, 0, 0, 589889, 1, 0, 589890, 5, 0, 589891, 7, 0, 589892, 0, 0, 589893, 1, 0, 589894, 5, 0, 589895, 6, 0, 589896, 0, 0, 589897, 1, 0, 589898, 5, 0, 589899, 6, 0, 589900, 8, 0, 589902, 8, 0, 589903, 6, 0, 589904, 0, 0, 589905, 8, 0, 589918, 8, 0, 589919, 1, 0, 655360, 0, 0, 655361, 1, 0, 655362, 81, 0, 655364, 8, 0, 655365, 0, 0, 655366, 1, 0, 655367, 0, 0, 655368, 1, 0, 655369, 6, 0, 655370, 0, 0, 655371, 1, 0, 655372, 5, 0, 655373, 6, 0, 655374, 0, 0, 655375, 5, 0, 655376, 6, 0, 655377, 8, 0, 655381, 82, 0, 655382, 8, 0, 655383, 0, 0, 655384, 1, 0, 655385, 5, 0, 655386, 6, 0, 655387, 0, 0, 655388, 1, 0, 655389, 5, 0, 655390, 6, 0, 655391, 0, 0, 655392, 0, 0, 655393, 1, 0, 655394, 5, 0, 655395, 6, 0, 655396, 8, 0, 655404, 8, 0, 655405, 0, 0, 655406, 1, 0, 655407, 5, 0, 655408, 5, 0, 655409, 1, 0, 655410, 0, 0, 655411, 6, 0, 655412, 5, 0, 655413, 1, 0, 655414, 0, 0, 655415, 6, 0, 655416, 5, 0, 655417, 1, 0, 655418, 0, 0, 655419, 5, 0, 655420, 6, 0, 655421, 1, 0, 655422, 0, 0, 655423, 0, 0, 655424, 5, 0, 655425, 1, 0, 655426, 6, 0, 655427, 7, 0, 655428, 0, 0, 655429, 1, 0, 655430, 5, 0, 655431, 6, 0, 655432, 7, 0, 655433, 0, 0, 655434, 1, 0, 655435, 5, 0, 655436, 8, 0, 655438, 8, 0, 655439, 5, 0, 655440, 1, 0, 655441, 8, 0, 655454, 8, 0, 655455, 5, 0, 720896, 5, 0, 720897, 6, 0, 720898, 83, 0, 720900, 8, 0, 720901, 0, 0, 720902, 1, 0, 720903, 5, 0, 720904, 6, 0, 720905, 0, 0, 720906, 1, 0, 720907, 5, 0, 720908, 6, 0, 720909, 0, 0, 720910, 1, 0, 720911, 1, 0, 720912, 0, 0, 720913, 81, 0, 720917, 84, 0, 720918, 8, 0, 720919, 1, 0, 720920, 5, 0, 720921, 6, 0, 720922, 0, 0, 720923, 1, 0, 720924, 5, 0, 720925, 6, 0, 720926, 0, 0, 720927, 1, 0, 720928, 0, 0, 720929, 2, 0, 720930, 3, 0, 720931, 3, 0, 720932, 17, 0, 720940, 8, 0, 720941, 0, 0, 720942, 1, 0, 720943, 0, 0, 720944, 6, 0, 720945, 2, 0, 720946, 3, 0, 720947, 14, 0, 720948, 15, 0, 720949, 16, 0, 720950, 3, 0, 720951, 14, 0, 720952, 15, 0, 720953, 16, 0, 720954, 3, 0, 720955, 3, 0, 720956, 3, 0, 720957, 3, 0, 720958, 3, 0, 720959, 3, 0, 720960, 3, 0, 720961, 3, 0, 720962, 3, 0, 720963, 3, 0, 720964, 3, 0, 720965, 3, 0, 720966, 3, 0, 720967, 3, 0, 720968, 3, 0, 720969, 3, 0, 720970, 3, 0, 720971, 3, 0, 720972, 17, 0, 720974, 8, 0, 720975, 5, 0, 720976, 7, 0, 720977, 8, 0, 720978, 63, 0, 720979, 73, 0, 720980, 63, 0, 720981, 73, 0, 720982, 63, 0, 720983, 73, 0, 720984, 63, 0, 720985, 73, 0, 720986, 63, 0, 720987, 73, 0, 720988, 63, 0, 720989, 73, 0, 720990, 8, 0, 720991, 6, 0, 786432, 85, 0, 786433, 85, 0, 786434, 86, 0, 786436, 57, 0, 786437, 3, 0, 786438, 3, 0, 786439, 3, 0, 786440, 14, 0, 786441, 15, 0, 786442, 16, 0, 786443, 3, 0, 786444, 3, 0, 786445, 3, 0, 786446, 4, 0, 786447, 0, 0, 786448, 1, 0, 786449, 87, 0, 786453, 84, 0, 786454, 8, 0, 786455, 5, 0, 786456, 6, 0, 786457, 0, 0, 786458, 1, 0, 786459, 5, 0, 786460, 6, 0, 786461, 1, 0, 786462, 1, 0, 786463, 5, 0, 786464, 88, 0, 786465, 89, 0, 786476, 57, 0, 786477, 3, 0, 786478, 4, 0, 786479, 1, 0, 786480, 0, 0, 786481, 8, 0, 786491, 40, 0, 786492, 39, 0, 786493, 40, 0, 786494, 39, 0, 786510, 8, 0, 786511, 1, 0, 786512, 1, 0, 786513, 8, 0, 786514, 90, 0, 786515, 63, 0, 786516, 73, 0, 786517, 63, 0, 786518, 73, 0, 786519, 63, 0, 786520, 73, 0, 786521, 63, 0, 786522, 91, 0, 786523, 63, 0, 786524, 90, 0, 786525, 63, 0, 786526, 8, 0, 786527, 6, 0, 851968, 0, 0, 851969, 86, 0, 851982, 8, 0, 851983, 6, 0, 851984, 5, 0, 851985, 87, 0, 851989, 92, 0, 851990, 57, 0, 851991, 3, 0, 851992, 14, 0, 851993, 15, 0, 851994, 15, 0, 851995, 16, 0, 851996, 3, 0, 851997, 3, 0, 851998, 3, 0, 851999, 3, 0, 852000, 3, 0, 852001, 17, 0, 852004, 93, 0, 852007, 94, 0, 852008, 95, 0, 852014, 87, 0, 852015, 5, 0, 852016, 1, 0, 852017, 8, 0, 852019, 96, 0, 852020, 97, 0, 852026, 40, 0, 852027, 39, 0, 852028, 2, 0, 852029, 3, 0, 852030, 3, 0, 852031, 3, 0, 852032, 3, 0, 852033, 3, 0, 852034, 25, 0, 852035, 39, 0, 852036, 24, 0, 852037, 3, 0, 852038, 3, 0, 852039, 3, 0, 852040, 3, 0, 852041, 25, 0, 852046, 8, 0, 852047, 0, 0, 852048, 5, 0, 852049, 8, 0, 852052, 63, 0, 852054, 63, 0, 852056, 63, 0, 852058, 98, 0, 852062, 8, 0, 852063, 0, 0, 917504, 1, 0, 917505, 81, 0, 917518, 81, 0, 917519, 5, 0, 917520, 6, 0, 917521, 87, 0, 917537, 99, 0, 917538, 100, 0, 917540, 101, 0, 917541, 102, 0, 917542, 103, 0, 917549, 104, 0, 917550, 105, 0, 917551, 6, 0, 917552, 5, 0, 917553, 8, 0, 917556, 10, 0, 917561, 40, 0, 917562, 39, 0, 917563, 40, 0, 917564, 8, 0, 917565, 5, 0, 917566, 7, 0, 917567, 0, 0, 917568, 1, 0, 917569, 5, 0, 917570, 8, 0, 917571, 40, 0, 917572, 8, 0, 917573, 0, 0, 917574, 1, 0, 917575, 5, 0, 917576, 6, 0, 917577, 8, 0, 917579, 2, 0, 917580, 3, 0, 917581, 3, 0, 917582, 79, 0, 917583, 6, 0, 917584, 6, 0, 917585, 8, 0, 917596, 106, 0, 917597, 107, 0, 917598, 8, 0, 917599, 1, 0, 983040, 5, 0, 983041, 87, 0, 983054, 87, 0, 983055, 0, 0, 983056, 0, 0, 983057, 87, 0, 983064, 108, 0, 983066, 108, 0, 983068, 24, 0, 983069, 3, 0, 983070, 3, 0, 983071, 3, 0, 983072, 3, 0, 983073, 25, 0, 983077, 109, 0, 983080, 110, 0, 983085, 111, 0, 983086, 112, 0, 983087, 7, 0, 983088, 6, 0, 983089, 8, 0, 983092, 23, 0, 983096, 40, 0, 983097, 39, 0, 983098, 40, 0, 983099, 39, 0, 983100, 8, 0, 983101, 1, 0, 983102, 0, 0, 983103, 6, 0, 983104, 7, 0, 983105, 0, 0, 983106, 8, 0, 983107, 39, 0, 983108, 8, 0, 983109, 6, 0, 983110, 1, 0, 983111, 7, 0, 983112, 0, 0, 983113, 8, 0, 983114, 113, 0, 983115, 8, 0, 983116, 0, 0, 983117, 7, 0, 983118, 0, 0, 983119, 7, 0, 983120, 7, 0, 983121, 8, 0, 983132, 114, 0, 983133, 115, 0, 983134, 8, 0, 983135, 5, 0, 1048576, 6, 0, 1048577, 87, 0, 1048590, 83, 0, 1048591, 0, 0, 1048592, 1, 0, 1048593, 87, 0, 1048595, 54, 0, 1048596, 55, 0, 1048600, 116, 0, 1048601, 77, 0, 1048602, 116, 0, 1048603, 77, 0, 1048604, 8, 0, 1048605, 6, 0, 1048606, 6, 0, 1048607, 6, 0, 1048608, 0, 0, 1048609, 8, 0, 1048616, 117, 0, 1048617, 118, 0, 1048620, 24, 0, 1048621, 3, 0, 1048622, 79, 0, 1048623, 1, 0, 1048624, 6, 0, 1048625, 8, 0, 1048626, 64, 0, 1048627, 119, 0, 1048628, 22, 0, 1048630, 39, 0, 1048631, 40, 0, 1048632, 39, 0, 1048633, 40, 0, 1048634, 39, 0, 1048635, 40, 0, 1048636, 80, 0, 1048637, 3, 0, 1048638, 4, 0, 1048639, 1, 0, 1048640, 2, 0, 1048641, 3, 0, 1048642, 17, 0, 1048643, 40, 0, 1048644, 57, 0, 1048645, 3, 0, 1048646, 3, 0, 1048647, 3, 0, 1048648, 3, 0, 1048649, 17, 0, 1048650, 113, 0, 1048651, 8, 0, 1048652, 0, 0, 1048653, 1, 0, 1048654, 1, 0, 1048655, 6, 0, 1048656, 5, 0, 1048657, 8, 0, 1048668, 28, 0, 1048669, 29, 0, 1048670, 8, 0, 1048671, 6, 0, 1114112, 6, 0, 1114113, 83, 0, 1114126, 8, 0, 1114127, 6, 0, 1114128, 5, 0, 1114129, 83, 0, 1114130, 120, 0, 1114131, 59, 0, 1114132, 60, 0, 1114133, 24, 0, 1114134, 3, 0, 1114135, 3, 0, 1114136, 3, 0, 1114137, 3, 0, 1114138, 3, 0, 1114139, 3, 0, 1114140, 79, 0, 1114141, 6, 0, 1114142, 6, 0, 1114143, 6, 0, 1114144, 1, 0, 1114145, 8, 0, 1114147, 119, 0, 1114152, 121, 0, 1114153, 122, 0, 1114154, 123, 0, 1114156, 8, 0, 1114157, 1, 0, 1114158, 0, 0, 1114159, 0, 0, 1114160, 0, 0, 1114161, 80, 0, 1114162, 3, 0, 1114163, 3, 0, 1114164, 3, 0, 1114165, 3, 0, 1114166, 4, 0, 1114167, 39, 0, 1114168, 40, 0, 1114169, 39, 0, 1114170, 40, 0, 1114171, 39, 0, 1114172, 40, 0, 1114173, 39, 0, 1114174, 8, 0, 1114175, 5, 0, 1114176, 8, 0, 1114182, 124, 0, 1114183, 125, 0, 1114184, 125, 0, 1114185, 125, 0, 1114186, 126, 0, 1114187, 8, 0, 1114188, 5, 0, 1114189, 6, 0, 1114190, 5, 0, 1114191, 5, 0, 1114192, 1, 0, 1114193, 8, 0, 1114203, 24, 0, 1114204, 3, 0, 1114205, 3, 0, 1114206, 79, 0, 1114207, 0, 0, 1179648, 0, 0, 1179649, 86, 0, 1179650, 85, 0, 1179651, 86, 0, 1179660, 24, 0, 1179661, 3, 0, 1179662, 79, 0, 1179663, 6, 0, 1179664, 0, 0, 1179665, 8, 0, 1179666, 127, 0, 1179667, 69, 0, 1179668, 70, 0, 1179669, 8, 0, 1179670, 0, 0, 1179671, 1, 0, 1179672, 5, 0, 1179673, 6, 0, 1179674, 0, 0, 1179675, 1, 0, 1179676, 5, 0, 1179677, 6, 0, 1179678, 6, 0, 1179679, 6, 0, 1179680, 5, 0, 1179681, 80, 0, 1179682, 14, 0, 1179683, 15, 0, 1179684, 16, 0, 1179685, 25, 0, 1179686, 128, 0, 1179687, 129, 0, 1179688, 130, 0, 1179689, 131, 0, 1179690, 132, 0, 1179691, 133, 0, 1179692, 134, 0, 1179693, 1, 0, 1179694, 0, 0, 1179695, 7, 0, 1179696, 1, 0, 1179697, 6, 0, 1179698, 0, 0, 1179699, 1, 0, 1179700, 5, 0, 1179701, 6, 0, 1179702, 8, 0, 1179704, 39, 0, 1179705, 40, 0, 1179706, 39, 0, 1179707, 40, 0, 1179708, 39, 0, 1179710, 8, 0, 1179711, 5, 0, 1179712, 80, 0, 1179713, 3, 0, 1179714, 3, 0, 1179715, 3, 0, 1179716, 3, 0, 1179717, 3, 0, 1179718, 3, 0, 1179719, 3, 0, 1179720, 3, 0, 1179721, 3, 0, 1179722, 3, 0, 1179723, 79, 0, 1179724, 7, 0, 1179725, 0, 0, 1179726, 6, 0, 1179727, 1, 0, 1179728, 6, 0, 1179729, 8, 0, 1179739, 8, 0, 1179740, 0, 0, 1179741, 1, 0, 1179742, 5, 0, 1179743, 1, 0, 1245184, 1, 0, 1245185, 5, 0, 1245186, 6, 0, 1245187, 81, 0, 1245196, 8, 0, 1245197, 0, 0, 1245198, 1, 0, 1245199, 5, 0, 1245200, 1, 0, 1245201, 80, 0, 1245202, 3, 0, 1245203, 3, 0, 1245204, 3, 0, 1245205, 79, 0, 1245206, 0, 0, 1245207, 1, 0, 1245208, 5, 0, 1245209, 6, 0, 1245210, 6, 0, 1245211, 6, 0, 1245212, 0, 0, 1245213, 6, 0, 1245214, 6, 0, 1245215, 6, 0, 1245216, 0, 0, 1245217, 1, 0, 1245218, 5, 0, 1245219, 6, 0, 1245220, 7, 0, 1245221, 8, 0, 1245222, 135, 0, 1245223, 136, 0, 1245224, 6, 0, 1245225, 7, 0, 1245226, 0, 0, 1245227, 1, 0, 1245228, 8, 0, 1245229, 6, 0, 1245230, 7, 0, 1245231, 0, 0, 1245232, 5, 0, 1245233, 0, 0, 1245234, 1, 0, 1245235, 5, 0, 1245236, 6, 0, 1245237, 7, 0, 1245238, 81, 0, 1245246, 8, 0, 1245247, 6, 0, 1245248, 0, 0, 1245249, 1, 0, 1245250, 5, 0, 1245251, 7, 0, 1245252, 0, 0, 1245253, 1, 0, 1245254, 5, 0, 1245255, 6, 0, 1245256, 7, 0, 1245257, 1, 0, 1245258, 5, 0, 1245259, 6, 0, 1245260, 1, 0, 1245261, 5, 0, 1245262, 7, 0, 1245263, 0, 0, 1245264, 7, 0, 1245265, 8, 0, 1245275, 8, 0, 1245276, 5, 0, 1245277, 6, 0, 1245278, 0, 0, 1245279, 1, 0, 1310720, 0, 0, 1310721, 1, 0, 1310722, 5, 0, 1310723, 8, 0, 1310732, 8, 0, 1310733, 0, 0, 1310734, 1, 0, 1310735, 5, 0, 1310736, 0, 0, 1310737, 1, 0, 1310738, 6, 0, 1310739, 5, 0, 1310740, 8, 0, 1310741, 137, 0, 1310742, 138, 0, 1310743, 139, 0, 1310744, 137, 0, 1310745, 138, 0, 1310746, 139, 0, 1310747, 137, 0, 1310748, 138, 0, 1310749, 8, 0, 1310750, 0, 0, 1310751, 1, 0, 1310752, 0, 0, 1310753, 1, 0, 1310754, 5, 0, 1310755, 8, 0, 1310756, 0, 0, 1310757, 1, 0, 1310758, 5, 0, 1310759, 6, 0, 1310760, 0, 0, 1310761, 1, 0, 1310762, 5, 0, 1310763, 6, 0, 1310764, 1, 0, 1310765, 5, 0, 1310766, 6, 0, 1310767, 7, 0, 1310768, 0, 0, 1310769, 0, 0, 1310770, 8, 0, 1310771, 5, 0, 1310772, 0, 0, 1310773, 1, 0, 1310774, 87, 0, 1310782, 8, 0, 1310783, 0, 0, 1310784, 0, 0, 1310785, 8, 0, 1310786, 0, 0, 1310787, 1, 0, 1310788, 5, 0, 1310789, 6, 0, 1310790, 23, 0, 1310791, 1, 0, 1310792, 23, 0, 1310793, 6, 0, 1310794, 23, 0, 1310795, 1, 0, 1310796, 23, 0, 1310797, 6, 0, 1310798, 8, 0, 1310799, 0, 0, 1310800, 0, 0, 1310801, 8, 0, 1310811, 8, 0, 1310812, 0, 0, 1310813, 1, 0, 1310814, 5, 0, 1310815, 6, 0, 1376256, 6, 0, 1376257, 7, 0, 1376258, 0, 0, 1376259, 8, 0, 1376268, 8, 0, 1376269, 6, 0, 1376270, 7, 0, 1376271, 0, 0, 1376272, 0, 0, 1376273, 1, 0, 1376274, 5, 0, 1376275, 6, 0, 1376276, 8, 0, 1376285, 8, 0, 1376286, 5, 0, 1376287, 6, 0, 1376288, 6, 0, 1376289, 7, 0, 1376290, 6, 0, 1376291, 8, 0, 1376292, 18, 0, 1376293, 19, 0, 1376294, 20, 0, 1376295, 21, 0, 1376296, 19, 0, 1376297, 18, 0, 1376298, 19, 0, 1376299, 20, 0, 1376300, 21, 0, 1376301, 28, 0, 1376302, 29, 0, 1376303, 20, 0, 1376304, 18, 0, 1376306, 8, 0, 1376307, 5, 0, 1376308, 6, 0, 1376309, 7, 0, 1376310, 87, 0, 1376318, 8, 0, 1376319, 1, 0, 1376320, 1, 0, 1376321, 8, 0, 1376322, 19, 0, 1376323, 28, 0, 1376324, 29, 0, 1376325, 19, 0, 1376326, 23, 0, 1376327, 19, 0, 1376328, 23, 0, 1376329, 19, 0, 1376330, 23, 0, 1376331, 19, 0, 1376332, 22, 0, 1376333, 18, 0, 1376334, 8, 0, 1376335, 1, 0, 1376336, 1, 0, 1376337, 8, 0, 1376347, 8, 0, 1376348, 6, 0, 1376349, 7, 0, 1376350, 0, 0, 1376351, 1, 0, 1441792, 1, 0, 1441793, 2, 0, 1441794, 3, 0, 1441795, 17, 0, 1441804, 57, 0, 1441805, 3, 0, 1441806, 3, 0, 1441807, 3, 0, 1441808, 3, 0, 1441809, 3, 0, 1441810, 3, 0, 1441811, 3, 0, 1441812, 17, 0, 1441821, 57, 0, 1441822, 3, 0, 1441823, 3, 0, 1441824, 3, 0, 1441825, 3, 0, 1441826, 3, 0, 1441827, 17, 0, 1441837, 35, 0, 1441838, 36, 0, 1441842, 8, 0, 1441843, 0, 0, 1441844, 1, 0, 1441845, 5, 0, 1441846, 83, 0, 1441854, 8, 0, 1441855, 5, 0, 1441856, 5, 0, 1441857, 8, 0, 1441859, 35, 0, 1441860, 36, 0, 1441862, 22, 0, 1441864, 23, 0, 1441866, 22, 0, 1441868, 11, 0, 1441870, 8, 0, 1441871, 5, 0, 1441872, 5, 0, 1441873, 8, 0, 1441883, 57, 0, 1441884, 3, 0, 1441885, 3, 0, 1441886, 3, 0, 1441887, 4, 0, 1507328, 5, 0, 1507329, 8, 0, 1507341, 12, 0, 1507342, 13, 0, 1507347, 140, 0, 1507358, 141, 0, 1507373, 43, 0, 1507374, 44, 0, 1507378, 8, 0, 1507379, 6, 0, 1507380, 7, 0, 1507381, 0, 0, 1507382, 8, 0, 1507390, 8, 0, 1507391, 6, 0, 1507392, 6, 0, 1507393, 8, 0, 1507395, 43, 0, 1507396, 44, 0, 1507398, 11, 0, 1507400, 22, 0, 1507402, 11, 0, 1507406, 8, 0, 1507407, 6, 0, 1507408, 6, 0, 1507409, 8, 0, 1507420, 12, 0, 1507421, 13, 0, 1507423, 8, 0, 1572864, 6, 0, 1572865, 8, 0, 1572877, 26, 0, 1572878, 27, 0, 1572914, 57, 0, 1572915, 3, 0, 1572916, 3, 0, 1572917, 3, 0, 1572918, 17, 0, 1572926, 8, 0, 1572927, 0, 0, 1572928, 0, 0, 1572929, 8, 0, 1572936, 11, 0, 1572942, 8, 0, 1572943, 0, 0, 1572944, 7, 0, 1572945, 8, 0, 1572949, 54, 0, 1572950, 55, 0, 1572956, 26, 0, 1572957, 27, 0, 1572959, 8, 0, 1638400, 7, 0, 1638401, 8, 0, 1638412, 45, 0, 1638460, 142, 0, 1638461, 143, 0, 1638462, 8, 0, 1638463, 1, 0, 1638464, 1, 0, 1638465, 8, 0, 1638478, 8, 0, 1638479, 1, 0, 1638480, 0, 0, 1638481, 8, 0, 1638485, 59, 0, 1638486, 60, 0, 1638495, 8, 0, 1703936, 0, 0, 1703937, 8, 0, 1703944, 54, 0, 1703945, 55, 0, 1703948, 56, 0, 1703955, 61, 0, 1703956, 62, 0, 1703982, 54, 0, 1703983, 55, 0, 1703986, 144, 0, 1703988, 108, 0, 1703990, 108, 0, 1703996, 10, 0, 1703998, 8, 0, 1703999, 5, 0, 1704000, 5, 0, 1704001, 8, 0, 1704014, 57, 0, 1704015, 3, 0, 1704016, 3, 0, 1704017, 17, 0, 1704018, 61, 0, 1704019, 62, 0, 1704021, 69, 0, 1704022, 70, 0, 1704031, 8, 0, 1769472, 1, 0, 1769473, 80, 0, 1769474, 3, 0, 1769475, 25, 0, 1769478, 61, 0, 1769479, 62, 0, 1769480, 59, 0, 1769481, 60, 0, 1769484, 66, 0, 1769491, 71, 0, 1769492, 72, 0, 1769512, 106, 0, 1769513, 107, 0, 1769515, 65, 0, 1769516, 65, 0, 1769518, 59, 0, 1769519, 60, 0, 1769522, 8, 0, 1769523, 77, 0, 1769524, 116, 0, 1769525, 77, 0, 1769526, 116, 0, 1769527, 128, 0, 1769528, 145, 0, 1769529, 146, 0, 1769530, 145, 0, 1769531, 146, 0, 1769532, 22, 0, 1769533, 128, 0, 1769534, 8, 0, 1769535, 6, 0, 1769536, 6, 0, 1769537, 8, 0, 1769547, 64, 0, 1769548, 64, 0, 1769554, 71, 0, 1769555, 72, 0, 1769557, 28, 0, 1769558, 29, 0, 1769567, 8, 0, 1835008, 5, 0, 1835009, 0, 0, 1835010, 1, 0, 1835011, 8, 0, 1835014, 71, 0, 1835015, 72, 0, 1835016, 69, 0, 1835017, 70, 0, 1835019, 74, 0, 1835020, 75, 0, 1835021, 76, 0, 1835027, 147, 0, 1835028, 148, 0, 1835032, 64, 0, 1835034, 119, 0, 1835048, 114, 0, 1835049, 115, 0, 1835050, 65, 0, 1835051, 147, 0, 1835052, 148, 0, 1835053, 65, 0, 1835054, 69, 0, 1835055, 70, 0, 1835058, 8, 0, 1835059, 0, 0, 1835060, 0, 0, 1835061, 0, 0, 1835062, 1, 0, 1835063, 5, 0, 1835064, 6, 0, 1835065, 7, 0, 1835066, 0, 0, 1835067, 1, 0, 1835068, 5, 0, 1835069, 6, 0, 1835070, 8, 0, 1835071, 0, 0, 1835072, 0, 0, 1835073, 8, 0, 1835079, 65, 0, 1835081, 65, 0, 1835083, 137, 0, 1835084, 138, 0, 1835085, 139, 0, 1835086, 137, 0, 1835087, 138, 0, 1835088, 50, 0, 1835089, 51, 0, 1835090, 52, 0, 1835091, 52, 0, 1835092, 52, 0, 1835093, 52, 0, 1835094, 52, 0, 1835095, 149, 0, 1835096, 50, 0, 1835097, 137, 0, 1835098, 138, 0, 1835099, 139, 0, 1835100, 137, 0, 1835101, 138, 0, 1835102, 139, 0, 1835103, 8, 0, 1900544, 6, 0, 1900545, 5, 0, 1900546, 6, 0, 1900547, 8, 0, 1900548, 50, 0, 1900549, 51, 0, 1900550, 52, 0, 1900551, 52, 0, 1900552, 149, 0, 1900553, 50, 0, 1900554, 51, 0, 1900555, 52, 0, 1900556, 52, 0, 1900557, 52, 0, 1900558, 52, 0, 1900559, 52, 0, 1900560, 52, 0, 1900561, 52, 0, 1900562, 52, 0, 1900563, 52, 0, 1900564, 52, 0, 1900565, 149, 0, 1900566, 50, 0, 1900567, 137, 0, 1900568, 138, 0, 1900569, 139, 0, 1900570, 137, 0, 1900571, 138, 0, 1900572, 139, 0, 1900573, 137, 0, 1900574, 138, 0, 1900575, 139, 0, 1900576, 137, 0, 1900577, 138, 0, 1900578, 139, 0, 1900579, 137, 0, 1900580, 138, 0, 1900581, 139, 0, 1900582, 50, 0, 1900583, 51, 0, 1900584, 52, 0, 1900585, 52, 0, 1900586, 52, 0, 1900587, 52, 0, 1900588, 52, 0, 1900589, 52, 0, 1900590, 52, 0, 1900591, 52, 0, 1900592, 149, 0, 1900593, 50, 0, 1900594, 8, 0, 1900595, 1, 0, 1900596, 5, 0, 1900597, 0, 0, 1900598, 1, 0, 1900599, 5, 0, 1900600, 6, 0, 1900601, 7, 0, 1900602, 0, 0, 1900603, 1, 0, 1900604, 5, 0, 1900605, 6, 0, 1900606, 8, 0, 1900607, 1, 0, 1900608, 1, 0, 1900609, 8, 0, 1900613, 50, 0, 1900614, 51, 0, 1900615, 52, 0, 1900616, 52, 0, 1900617, 52, 0, 1900618, 52, 0, 1900619, 52, 0, 1900620, 52, 0, 1900621, 52, 0, 1900622, 149, 0, 1900623, 50, 0, 1900624, 0, 0, 1900625, 1, 0, 1900626, 5, 0, 1900627, 6, 0, 1900628, 0, 0, 1900629, 1, 0, 1900630, 5, 0, 1900631, 6, 0, 1900632, 0, 0, 1900633, 1, 0, 1900634, 5, 0, 1900635, 6, 0, 1900636, 0, 0, 1900637, 1, 0, 1900638, 5, 0, 1900639, 8, 0, 1966080, 0, 0, 1966081, 8, 0, 1966082, 0, 0, 1966083, 1, 0, 1966084, 5, 0, 1966085, 6, 0, 1966086, 8, 0, 1966087, 0, 0, 1966088, 1, 0, 1966089, 5, 0, 1966090, 8, 0, 1966091, 7, 0, 1966092, 6, 0, 1966093, 5, 0, 1966094, 1, 0, 1966095, 0, 0, 1966096, 0, 0, 1966097, 1, 0, 1966098, 5, 0, 1966099, 6, 0, 1966100, 0, 0, 1966101, 1, 0, 1966102, 5, 0, 1966103, 6, 0, 1966104, 0, 0, 1966105, 1, 0, 1966106, 0, 0, 1966107, 6, 0, 1966108, 0, 0, 1966109, 1, 0, 1966110, 5, 0, 1966111, 6, 0, 1966112, 0, 0, 1966113, 6, 0, 1966114, 0, 0, 1966115, 1, 0, 1966116, 6, 0, 1966117, 5, 0, 1966118, 1, 0, 1966119, 0, 0, 1966120, 6, 0, 1966121, 5, 0, 1966122, 1, 0, 1966123, 0, 0, 1966124, 6, 0, 1966125, 1, 0, 1966126, 5, 0, 1966127, 0, 0, 1966128, 0, 0, 1966129, 1, 0, 1966130, 5, 0, 1966131, 6, 0, 1966132, 0, 0, 1966133, 1, 0, 1966134, 5, 0, 1966135, 6, 0, 1966136, 0, 0, 1966137, 6, 0, 1966138, 0, 0, 1966139, 0, 0, 1966140, 1, 0, 1966141, 0, 0, 1966142, 1, 0, 1966143, 0, 0, 1966144, 0, 0, 1966145, 8, 0, 1966149, 150, 0, 1966150, 0, 0, 1966151, 5, 0, 1966152, 1, 0, 1966153, 0, 0, 1966154, 1, 0, 1966155, 5, 0, 1966156, 6, 0, 1966157, 0, 0, 1966158, 0, 0, 1966159, 5, 0, 2031616, 1, 0, 2031617, 8, 0, 2031618, 18, 0, 2031619, 19, 0, 2031620, 20, 0, 2031621, 21, 0, 2031622, 8, 0, 2031623, 6, 0, 2031624, 0, 0, 2031625, 1, 0, 2031626, 8, 0, 2031627, 18, 0, 2031628, 19, 0, 2031629, 20, 0, 2031630, 21, 0, 2031631, 18, 0, 2031632, 18, 0, 2031633, 19, 0, 2031634, 20, 0, 2031635, 21, 0, 2031636, 18, 0, 2031637, 19, 0, 2031638, 19, 0, 2031639, 20, 0, 2031640, 18, 0, 2031641, 10, 0, 2031642, 19, 0, 2031643, 10, 0, 2031644, 20, 0, 2031645, 18, 0, 2031646, 19, 0, 2031647, 18, 0, 2031648, 18, 0, 2031649, 19, 0, 2031650, 20, 0, 2031651, 21, 0, 2031652, 18, 0, 2031653, 19, 0, 2031654, 19, 0, 2031655, 19, 0, 2031656, 20, 0, 2031657, 21, 0, 2031658, 18, 0, 2031659, 19, 0, 2031660, 20, 0, 2031661, 21, 0, 2031662, 18, 0, 2031663, 18, 0, 2031664, 3, 0, 2031665, 3, 0, 2031666, 3, 0, 2031667, 3, 0, 2031668, 3, 0, 2031669, 3, 0, 2031670, 3, 0, 2031671, 4, 0, 2031672, 1, 0, 2031673, 5, 0, 2031674, 1, 0, 2031675, 6, 0, 2031676, 5, 0, 2031677, 6, 0, 2031678, 5, 0, 2031679, 6, 0, 2031680, 1, 0, 2031681, 8, 0, 2031685, 151, 0, 2031686, 0, 0, 2031687, 1, 0, 2031688, 2, 0, 2031689, 3, 0, 2031690, 3, 0, 2031691, 3, 0, 2031692, 3, 0, 2031693, 3, 0, 2031694, 4, 0, 2031695, 6, 0, 2097152, 5, 0, 2097153, 8, 0, 2097158, 57, 0, 2097159, 3, 0, 2097160, 3, 0, 2097161, 3, 0, 2097162, 17, 0, 2097177, 23, 0, 2097178, 152, 0, 2097179, 23, 0, 2097207, 8, 0, 2097208, 5, 0, 2097209, 1, 0, 2097210, 7, 0, 2097211, 5, 0, 2097212, 6, 0, 2097213, 5, 0, 2097214, 6, 0, 2097215, 5, 0, 2097216, 5, 0, 2097217, 8, 0, 2097221, 153, 0, 2097222, 5, 0, 2097223, 6, 0, 2097224, 8, 0, 2097225, 39, 0, 2097227, 39, 0, 2097229, 39, 0, 2097230, 8, 0, 2097231, 0, 0, 2162688, 6, 0, 2162689, 8, 0, 2162695, 11, 0, 2162696, 11, 0, 2162713, 23, 0, 2162715, 22, 0, 2162735, 154, 0, 2162736, 150, 0, 2162743, 8, 0, 2162744, 0, 0, 2162745, 0, 0, 2162746, 0, 0, 2162747, 0, 0, 2162748, 1, 0, 2162749, 7, 0, 2162750, 5, 0, 2162751, 7, 0, 2162752, 0, 0, 2162753, 8, 0, 2162757, 153, 0, 2162758, 1, 0, 2162759, 1, 0, 2162760, 8, 0, 2162761, 40, 0, 2162762, 64, 0, 2162763, 40, 0, 2162764, 64, 0, 2162765, 40, 0, 2162766, 8, 0, 2162767, 1, 0, 2228224, 0, 0, 2228225, 8, 0, 2228227, 155, 0, 2228228, 156, 0, 2228229, 157, 0, 2228230, 158, 0, 2228249, 23, 0, 2228271, 8, 0, 2228272, 151, 0, 2228279, 8, 0, 2228280, 0, 0, 2228281, 6, 0, 2228282, 1, 0, 2228283, 1, 0, 2228284, 7, 0, 2228285, 0, 0, 2228286, 1, 0, 2228287, 0, 0, 2228288, 7, 0, 2228289, 8, 0, 2228293, 57, 0, 2228294, 3, 0, 2228295, 3, 0, 2228296, 79, 0, 2228297, 39, 0, 2228298, 40, 0, 2228299, 39, 0, 2228300, 40, 0, 2228301, 39, 0, 2228302, 8, 0, 2228303, 5, 0, 2293760, 1, 0, 2293761, 8, 0, 2293763, 159, 0, 2293766, 160, 0, 2293785, 22, 0, 2293786, 161, 0, 2293787, 10, 0, 2293795, 54, 0, 2293796, 55, 0, 2293807, 8, 0, 2293808, 153, 0, 2293815, 8, 0, 2293816, 1, 0, 2293817, 1, 0, 2293818, 1, 0, 2293819, 7, 0, 2293820, 1, 0, 2293821, 1, 0, 2293822, 5, 0, 2293823, 1, 0, 2293824, 7, 0, 2293825, 8, 0, 2293826, 54, 0, 2293827, 55, 0, 2293830, 39, 0, 2293831, 40, 0, 2293832, 39, 0, 2293833, 40, 0, 2293834, 39, 0, 2293836, 39, 0, 2293838, 8, 0, 2293839, 6, 0, 2359296, 5, 0, 2359297, 8, 0, 2359299, 160, 0, 2359302, 159, 0, 2359322, 162, 0, 2359323, 23, 0, 2359331, 59, 0, 2359332, 60, 0, 2359335, 65, 0, 2359336, 65, 0, 2359338, 65, 0, 2359339, 65, 0, 2359343, 8, 0, 2359344, 163, 0, 2359351, 57, 0, 2359352, 3, 0, 2359353, 3, 0, 2359354, 3, 0, 2359355, 3, 0, 2359356, 3, 0, 2359357, 3, 0, 2359358, 3, 0, 2359359, 3, 0, 2359360, 3, 0, 2359361, 17, 0, 2359362, 59, 0, 2359363, 60, 0, 2359366, 40, 0, 2359367, 39, 0, 2359368, 40, 0, 2359369, 39, 0, 2359370, 40, 0, 2359371, 119, 0, 2359372, 40, 0, 2359373, 164, 0, 2359374, 8, 0, 2359375, 7, 0, 2424832, 6, 0, 2424833, 8, 0, 2424835, 160, 0, 2424838, 160, 0, 2424840, 65, 0, 2424841, 65, 0, 2424852, 164, 0, 2424857, 10, 0, 2424859, 23, 0, 2424867, 69, 0, 2424868, 70, 0, 2424871, 28, 0, 2424872, 29, 0, 2424873, 65, 0, 2424874, 28, 0, 2424875, 29, 0, 2424879, 8, 0, 2424880, 97, 0, 2424898, 69, 0, 2424899, 70, 0, 2424902, 39, 0, 2424903, 40, 0, 2424904, 39, 0, 2424905, 40, 0, 2424906, 39, 0, 2424907, 40, 0, 2424908, 39, 0, 2424909, 40, 0, 2424910, 8, 0, 2424911, 0, 0, 2490368, 0, 0, 2490369, 8, 0, 2490371, 165, 0, 2490372, 166, 0, 2490373, 167, 0, 2490374, 165, 0, 2490376, 147, 0, 2490377, 148, 0, 2490378, 137, 0, 2490379, 138, 0, 2490380, 139, 0, 2490381, 137, 0, 2490382, 138, 0, 2490383, 139, 0, 2490384, 137, 0, 2490385, 138, 0, 2490386, 139, 0, 2490387, 137, 0, 2490388, 138, 0, 2490389, 139, 0, 2490390, 137, 0, 2490391, 138, 0, 2490392, 139, 0, 2490393, 22, 0, 2490395, 22, 0, 2490396, 137, 0, 2490397, 138, 0, 2490398, 137, 0, 2490399, 138, 0, 2490400, 50, 0, 2490401, 51, 0, 2490402, 52, 0, 2490403, 52, 0, 2490404, 52, 0, 2490405, 52, 0, 2490406, 52, 0, 2490407, 52, 0, 2490408, 52, 0, 2490409, 52, 0, 2490410, 52, 0, 2490411, 52, 0, 2490412, 149, 0, 2490413, 50, 0, 2490414, 51, 0, 2490415, 79, 0, 2490416, 144, 0, 2490423, 108, 0, 2490424, 64, 0, 2490425, 108, 0, 2490426, 64, 0, 2490427, 108, 0, 2490428, 64, 0, 2490429, 108, 0, 2490430, 64, 0, 2490431, 24, 0, 2490432, 3, 0, 2490433, 3, 0, 2490434, 3, 0, 2490435, 3, 0, 2490436, 3, 0, 2490437, 3, 0, 2490438, 3, 0, 2490439, 3, 0, 2490440, 3, 0, 2490441, 3, 0, 2490442, 3, 0, 2490443, 3, 0, 2490444, 3, 0, 2490445, 3, 0, 2490446, 79, 0, 2490447, 1, 0, 2555904, 1, 0, 2555905, 14, 0, 2555906, 15, 0, 2555907, 15, 0, 2555908, 15, 0, 2555909, 15, 0, 2555910, 15, 0, 2555911, 15, 0, 2555912, 15, 0, 2555913, 15, 0, 2555914, 15, 0, 2555915, 15, 0, 2555916, 15, 0, 2555917, 15, 0, 2555918, 15, 0, 2555919, 16, 0, 2555920, 3, 0, 2555921, 3, 0, 2555922, 3, 0, 2555923, 3, 0, 2555924, 3, 0, 2555925, 3, 0, 2555926, 3, 0, 2555927, 3, 0, 2555928, 3, 0, 2555929, 3, 0, 2555930, 3, 0, 2555931, 3, 0, 2555932, 3, 0, 2555933, 3, 0, 2555934, 3, 0, 2555935, 3, 0, 2555936, 0, 0, 2555937, 1, 0, 2555938, 5, 0, 2555939, 6, 0, 2555940, 7, 0, 2555941, 0, 0, 2555942, 1, 0, 2555943, 5, 0, 2555944, 6, 0, 2555945, 7, 0, 2555946, 0, 0, 2555947, 1, 0, 2555948, 5, 0, 2555949, 6, 0, 2555950, 7, 0, 2555951, 6, 0, 2555952, 8, 0, 2555953, 50, 0, 2555954, 51, 0, 2555955, 52, 0, 2555956, 52, 0, 2555957, 149, 0, 2555958, 50, 0, 2555959, 116, 0, 2555960, 77, 0, 2555961, 116, 0, 2555962, 77, 0, 2555963, 116, 0, 2555964, 77, 0, 2555965, 116, 0, 2555966, 77, 0, 2555967, 8, 0, 2555968, 0, 0, 2555969, 1, 0, 2555970, 5, 0, 2555971, 6, 0, 2555972, 7, 0, 2555973, 0, 0, 2555974, 1, 0, 2555975, 5, 0, 2555976, 6, 0, 2555977, 7, 0, 2555978, 0, 0, 2555979, 1, 0, 2555980, 5, 0, 2555981, 6, 0, 2555982, 5, 0, 2555983, 6, 0 )